Place,Name,BodyweightKg,WeightClassKg,BirthDate,Team,Squat1Kg,Squat2Kg,Squat3Kg,Best3SquatKg,Bench1Kg,Bench2Kg,Bench3Kg,Best3BenchKg,Deadlift1Kg,Deadlift2Kg,Deadlift3Kg,Best3DeadliftKg,TotalKg,Division,Sex,Equipment,Event
1,Lucas Eigner,44.3,52,1996-10-18,HAV 77 e.V.,45,55,57.5,57.5,35,40,42.5,42.5,65,75,80,80,180,Youth,M,Single-ply,SBD
1,Anja Schreiner,47.9,48,1993-07-30,SC Oberölsbach e.V.,-90,-90,95,95,67.5,72.5,75,75,105,115,-120,115,285,Youth,F,Single-ply,SBD
1,Mareen Schmeelke,52,52,1991-04-08,SV Motor Eberswalde,130,140,147.5,147.5,60,62.5,65,65,120,130,132.5,132.5,345,Juniors,F,Single-ply,SBD
2,Helena Schlosser,52.2,56,1988-02-20,VT Union Groß Ilside,120,125,-130,125,-67.5,-72.5,72.5,72.5,105,112.5,120,120,317.5,Juniors,F,Single-ply,SBD
1,Richard Rese,54.8,56,1990-12-05,KFV Döbeln,-135,135,-152.5,135,70,-80,-80,70,150,157.5,162.5,162.5,367.5,Juniors,M,Single-ply,SBD
1,Susann Cichon,55.9,56,1987-05-22,AC Oppenau 1984 e.V.,137.5,147.5,153,153,67.5,72.5,-75,72.5,137.5,-147.5,147.5,147.5,373,Juniors,F,Single-ply,SBD
1,Rico Piffka,56,56,1993-07-10,AC Rüdersdorf e.V.,95,100,-105,100,65,72.5,-75,72.5,125,130,135,135,307.5,Youth,M,Single-ply,SBD
4,Nick Schünemann,56.2,60,1992-08-13,SG Stahl Blankenburg,-100,110,-120,110,-65,65,-70,65,110,120,125,125,300,Youth,M,Single-ply,SBD
1,Ronja Regener,58.9,60,1991-02-13,KSV Fitnesskreis,85,90,95,95,45,-50,-50,45,80,90,95,95,235,Juniors,F,Single-ply,SBD
DQ,Martin Füssel,59.3,60,1990-11-08,SV 1919 Grimma,-202.5,-205,-205,,87.5,,,87.5,172.5,,,172.5,,Juniors,M,Single-ply,SBD
2,Bryan Menzel,59.7,60,1994-02-14,AC Lauchhammer e.V.,110,-120,-120,110,65,-70,-70,65,125,130,-132.5,130,305,Youth,M,Single-ply,SBD
3,Kevin Bardischewski,59.7,60,1993-10-05,AC Rüdersdorf e.V.,75,80,85,85,65,70,-72.5,70,-140,140,150,150,305,Youth,M,Single-ply,SBD
1,Max Hampel,59.9,60,1993-10-16,AC Oppenau 1984 e.V.,145,160,-171,160,95,102.5,107.5,107.5,167.5,-177.5,185.5,185.5,453,Youth,M,Single-ply,SBD
DQ,Janette Junge,60,60,1987-05-10,Kraft & Fitness e.V. Eile,-80,-80,-85,,,,,,,,,,,Juniors,F,Single-ply,SBD
1,Laura Gramann,62.3,67.5,1987-12-29,VT Union Groß Ilside,110,115,-120,115,67.5,-72.5,-77.5,67.5,125,130,-135,130,312.5,Juniors,F,Single-ply,SBD
1,Marie Hauschild,63.7,67.5,1995-06-13,SV Jugendclub Weißen,60,70,-80,70,40,45,-50,45,80,90,100,100,215,Youth,F,Single-ply,SBD
2,Sergej Helmel,65.1,67.5,1989-05-20,SV 14/19 Westerholt e.V,170,180,185,185,100,110,115,115,165,180,187.5,187.5,487.5,Juniors,M,Single-ply,SBD
4,Dominik Jung,65.8,67.5,1993-10-04,AC Rüdersdorf e.V.,95,102.5,-107.5,102.5,100,-107.5,-107.5,100,130,135,,135,337.5,Youth,M,Single-ply,SBD
2,Marius Milla,66,67.5,1993-06-16,KSV Langen,140,147.5,152.5,152.5,85,-90,90,90,180,187.5,-192.5,187.5,430,Youth,M,Single-ply,SBD
1,Vadin Helmel,66.5,67.5,1988-02-19,SV 14/19 Westerholt e.V,205,215,222.5,222.5,115,122.5,-127.5,122.5,205,215,225,225,570,Juniors,M,Single-ply,SBD
DQ,Helmut Priebe,66.6,67.5,1993-09-01,SV Quitt Ankum,-110,115,-127.5,115,-87.5,-87.5,-87.5,,160,-175,,160,,Youth,M,Single-ply,SBD
3,Viktor Prokopov,67,67.5,1994-07-13,STC Bav. Landshut,140,-150,150,150,-77.5,77.5,-82.5,77.5,-140,145,152.5,152.5,380,Youth,M,Single-ply,SBD
3,Robert Szczepanski,67.2,67.5,1988-01-17,VT Union Groß Ilsede,170,180,-185,180,102.5,107.5,112.5,112.5,175,182.5,190,190,482.5,Juniors,M,Single-ply,SBD
1,Haohuy Nguyen Van,67.3,67.5,1993-10-02,AC Rüdersdorf e.V.,150,-160,160,160,85,90,95,95,-160,165,177.5,177.5,432.5,Youth,M,Single-ply,SBD
1,Anna-Lena Kretschmann,67.8,75,1989-06-24,KSV Fitnesskreis,90,97.5,102.5,102.5,60,65,67.5,67.5,115,125,132.5,132.5,302.5,Juniors,F,Single-ply,SBD
2,Steffen Burk,69.2,75,1994-06-03,SSV-90 Hohen Wangeli,165,172.5,177.5,177.5,125,130,-132.5,130,200,210,220,220,527.5,Youth,M,Single-ply,SBD
3,Stefan Merthan,69.4,75,1991-11-04,STC Bavaria Landshut,145,160,-167.5,160,72.5,-80,80,80,150,165,177.5,177.5,417.5,Juniors,M,Single-ply,SBD
6,Marco Seibel,71.2,75,1995-03-20,AC Lauchhammer e.V.,105,110,115,115,65,70,-72.5,70,-130,140,147.5,147.5,332.5,Youth,M,Single-ply,SBD
7,Eugen Pabst,71.3,75,1993-06-14,AC Rüdersdorf e.V.,95,100,105,105,85,87.5,90,90,90,105,115,115,310,Youth,M,Single-ply,SBD
4,Andreas Rebhan,71.8,75,1988-10-24,Polizeisportverein Sonn,130,140,150,150,90,95,100,100,140,152.5,167.5,167.5,417.5,Juniors,M,Single-ply,SBD
2,Paul Schippel,73.1,75,1989-01-17,SV Motor Eberswalde,-145,145,155,155,105,110,-115,110,165,175,-180,175,440,Juniors,M,Single-ply,SBD
5,Florian Tikwe,73.4,75,1992-10-14,STC Bavaria Landshut,-150,150,170,170,80,90,-100,90,135,150,160,160,420,Youth,M,Single-ply,SBD
1,Segej Becker,73.5,75,1991-03-27,Todtglüsinger Sportvere,135,147.5,-155,147.5,110,117.5,-122.5,117.5,170,180,192.5,192.5,457.5,Juniors,M,Single-ply,SBD
1,Raphael Birner,73.6,75,1992-06-15,AC Amberg e.V.,-205,215,-225,215,100,125,-130,125,225,240,243,243,583,Youth,M,Single-ply,SBD
DQ,Michael Richter,73.9,75,1987-12-19,FSV 1895 Magdeburg e,-220,-220,-220,,,,,,210,,,210,,Juniors,M,Single-ply,SBD
4,Julian Schnurr,74,75,1994-01-21,AC Oppenau 1984 e.V.,182.5,197.5,-202.5,197.5,127.5,-132.5,-132.5,127.5,172.5,182.5,-187.5,182.5,507.5,Youth,M,Single-ply,SBD
3,Eugen Mihajlov,74.8,75,1992-08-07,AC Oppenau 1984 e.V.,-175,180,-192.5,180,120,127.5,132.5,132.5,185,200,-210,200,512.5,Youth,M,Single-ply,SBD
1,Veronika Mull,75.7,82.5,1989-08-20,,155,-162.5,-162.5,155,-82.5,82.5,-87.5,82.5,135,147.5,-162.5,147.5,385,Juniors,F,Single-ply,SBD
2,Sebastian Gronschel,77,82.5,1992-12-28,AC Rüdersdorf e.V.,190,-200,-210,190,140,145,150,150,190,-210,210,210,550,Youth,M,Single-ply,SBD
1,Marcel Schüßler,78.5,82.5,1992-07-14,TV 1895 Bad Rappenau,215,230,240,240,140,-147.5,-147.5,140,250,260,270,270,650,Youth,M,Single-ply,SBD
4,Chris-Paul Neumann,78.7,82.5,1993-03-14,AC Lauchhammer e.V.,115,125,132.5,132.5,90,95,-100,95,160,-165,-165,160,387.5,Youth,M,Single-ply,SBD
4,Nico Kästner,79.1,82.5,1990-11-29,Athletenclub 1888 Marb,200,-207.5,-207.5,200,125,135,140,140,210,-225,-230,210,550,Juniors,M,Single-ply,SBD
6,René Waßmann,80.6,82.5,1988-08-01,AC Rüdersdorf e.V.,125,130,135,135,95,-100,-100,95,190,-200,205,205,435,Juniors,M,Single-ply,SBD
3,Robert Leisker,80.8,82.5,1993-10-14,AC Lauchhammer e.V.,100,110,-120,110,70,80,-82.5,80,160,-170,170,170,360,Youth,M,Single-ply,SBD
5,Jens Doll,81.4,82.5,1990-09-22,AC Oppenau 1984 e.V.,175,190,202.5,202.5,-105,105,112.5,112.5,190,210,-227.5,210,525,Juniors,M,Single-ply,SBD
2,Vincent Curth,81.6,82.5,1991-10-14,Kraft & Fitness e.V. Eile,-260,-260,275,275,160,170,175,175,230,242.5,250,250,700,Juniors,M,Single-ply,SBD
1,Artur Dimmel,82.1,82.5,1991-01-27,SV Quitt Ankum,242.5,-250,250,250,175,-180,180,180,272.5,275,282.5,282.5,712.5,Juniors,M,Single-ply,SBD
3,Leon Koschnik,82.5,82.5,1988-06-26,AC Rüdersdorf e.V.,240,255,265,265,150,157.5,165,165,235,250,-272.5,250,680,Juniors,M,Single-ply,SBD
6,Martin Ehrlicher,83.1,90,1991-12-30,Polizeisportverein Sonn,200,210,217.5,217.5,105,-112.5,-112.5,105,200,210,215,215,537.5,Juniors,M,Single-ply,SBD
8,Johann Becker,84,90,1991-03-27,Todtglüsinger Sportvere,155,170,-182.5,170,110,-120,-125,110,185,200,-205,200,480,Juniors,M,Single-ply,SBD
4,Manuel Rieß,84.2,90,1993-03-25,1. AC Bayreuth,-195,195,-202.5,195,120,125,-130,125,242.5,252.5,255,255,575,Youth,M,Single-ply,SBD
2,Eugen Feldbusch,84.6,90,1993-11-10,STC Bav. Landshut,172.5,185,192.5,192.5,95,105,-115,105,170,-185,185,185,482.5,Youth,M,Single-ply,SBD
3,Manuel Gonnermann,84.6,90,1993-06-26,FAC Sangerhausen,185,200,-215,200,-105,115,-125,115,190,210,-220,210,525,Youth,M,Single-ply,SBD
3,Martin Lux,85.2,90,1989-01-02,AC Rüdersdorf e.V.,225,235,245,245,140,145,150,150,245,-260,-260,245,640,Juniors,M,Single-ply,SBD
7,Tom Müller,85.9,90,1991-10-20,KFV Döbeln,190,-200,200,200,110,117.5,120,120,195,-205,-205,195,515,Juniors,M,Single-ply,SBD
9,Adrian Herman,87.5,90,1987-07-19,Powerlifting Duisburg e.,160,-170,-180,160,100,110,-115,110,195,205,-210,205,475,Juniors,M,Single-ply,SBD
5,Moritz Kröner,88.2,90,1990-01-30,FCL Rhein Main Rüssel,200,-207.5,207.5,207.5,150,-155,-155,150,200,212.5,-217.5,212.5,570,Juniors,M,Single-ply,SBD
1,André Justus,88.9,90,1987-05-07,USV Jena,275,282.5,292.5,292.5,142.5,147.5,152.5,152.5,250,257.5,-265,257.5,702.5,Juniors,M,Single-ply,SBD
2,Christian Schreiber,89.1,90,1987-06-14,KBV Bautzen e.V,240,-260,-260,240,145,155,162.5,162.5,270,290,-302.5,290,692.5,Juniors,M,Single-ply,SBD
1,Dominik Pahl,89.6,90,1992-04-20,TV Papenburg,225,-235,242.5,242.5,115,120,125,125,230,240,247.5,247.5,615,Youth,M,Single-ply,SBD
4,Marvin Rippe,89.9,90,1990-10-05,Athletik Club Siegfried D,-220,220,-227.5,220,-152.5,152.5,-160,152.5,-230,230,-242.5,230,602.5,Juniors,M,Single-ply,SBD
3,Sören Radtke,90.2,100,1988-01-22,AC Rüdersdorf e.V.,190,200,,200,120,,,120,180,200,,200,520,Juniors,M,Single-ply,SBD
5,Brandau Brian,91.1,100,1993-04-28,VfB Klötze,170,180,-185,180,120,-125,125,125,190,-200,-200,190,495,Youth,M,Single-ply,SBD
6,Patrick Galwik,92.8,100,1993-04-12,SV Quitt Ankum,130,140,-147.5,140,90,-100,-100,90,165,175,185,185,415,Youth,M,Single-ply,SBD
4,Mierzwa Domenik,92.9,100,1993-02-15,AC Rüdersdorf e.V.,155,160,-165,160,100,105,110,110,165,170,175,175,445,Youth,M,Single-ply,SBD
1,Heiko Schlachta,93.9,100,1993-01-03,KSO Silberrücken Dortm,180,200,,200,130,-156,-156,130,180,200,220,220,550,Youth,M,Single-ply,SBD
2,Sascha Krause,95.2,100,1990-06-22,HAV 77 e.V.,250,265,-275,265,150,155,160,160,230,-240,245,245,670,Juniors,M,Single-ply,SBD
3,Felix Enge,95.9,100,1993-02-05,KFV Döbeln,130,137.5,-142.5,137.5,72.5,-77.5,77.5,77.5,150,160,167.5,167.5,382.5,Youth,M,Single-ply,SBD
4,Tim-Michael Jurick,98.9,100,1996-08-09,AC Lauchhammer e.V.,110,120,-125,120,65,72.5,-77.5,72.5,140,145,150,150,342.5,Youth,M,Single-ply,SBD
1,Marcus Böttger,99.6,100,1990-02-23,AC Lauchhammer e.V.,310,320,-330,320,190,200,205,205,270,-280,,270,795,Juniors,M,Single-ply,SBD
2,Sascha Kabisch,100.1,110,1988-10-19,Gothaer Bierfassheber,210,230,-250,230,160,-170,175,175,230,250,-270,250,655,Juniors,M,Single-ply,SBD
4,Martin Wunderlich,104.4,110,1987-11-09,Lobensteiner AV 93,-210,210,225,225,145,165,-172.5,165,200,-215,-220,200,590,Juniors,M,Single-ply,SBD
3,Lars Krüger,104.8,110,1990-10-16,STC Bav. Landshut,190,212.5,-222.5,212.5,135,145,152.5,152.5,220,242.5,-245,242.5,607.5,Juniors,M,Single-ply,SBD
DQ,Max Reiz,108.3,110,1991-01-29,SV Motor Barth,-240,-250,-250,,,,,,,,,,,Juniors,M,Single-ply,SBD
1,Sephan Strauß,109.8,110,1987-05-17,Kraft & Fitness e.V. Eile,275,-300,-300,275,175,185,-192.5,185,230,250,-260,250,710,Juniors,M,Single-ply,SBD
3,Sven Neuendorf,110.7,125,1990-06-07,SV Motor Barth,165,175,185,185,135,145,-152.5,145,170,180,-195,180,510,Juniors,M,Single-ply,SBD
1,Steven Podas,112,125,1989-08-19,FSV 1895 Magdeburg e,220,-260,-320,220,140,145,-162.5,145,220,227.5,,227.5,592.5,Juniors,M,Single-ply,SBD
2,Robert Enge,114.8,125,1989-02-10,KFV Döbeln,-210,210,230,230,125,-135,-135,125,210,225,-240,225,580,Juniors,M,Single-ply,SBD
4,Stefan Voss,120.6,125,1990-03-20,STC Bav. Landshut,150,165,170,170,100,107.5,-112.5,107.5,167.5,180,-200,180,457.5,Juniors,M,Single-ply,SBD
1,Daniel Keil,137.2,125+,1988-02-26,KSV Krefeld,280,300,-310,300,205,215,220,220,230,250,260,260,780,Juniors,M,Single-ply,SBD
1,Jan Grigat,138.6,125+,1993-07-03,VfB Klötze,180,200,225,225,150,160,-170,160,240,-255,255,255,640,Youth,M,Single-ply,SBD
