Place,Name,Division,AgeRange,Country,Best3SquatKg,Best3BenchKg,Best3DeadliftKg,TotalKg,WeightClassKg,Sex,BirthYear,Event,Equipment
1,Maria Sarris,T1,13-15,USA,117.5,50,125,292.5,52,F,1979,SBD,Multi-ply
1,Jordan,T2,16-17,UK,130,65,132.5,327.5,52,F,,SBD,Multi-ply
1,Justine Horseman,T3,18-19,Australia,145,97.5,155,397.5,56,F,1973,SBD,Multi-ply
1,Amy Weisberger,O,,USA,160,97.5,162.5,420,56,F,1965,SBD,Multi-ply
2,Tonya Myers,O,,USA,165,75,172.5,412.5,56,F,1970,SBD,Multi-ply
3,Westwood,O,,UK,145,87.5,155,387.5,56,F,,SBD,Multi-ply
1,Helen McCalmon,M2,45-49,UK,95,45,135,275,56,F,1945,SBD,Multi-ply
DQ,Vickio,T3,18-19,USA,,,,,60,F,,SBD,Multi-ply
1,Mary Ellen Warman,O,,USA,227.5,105,187.5,520,60,F,1958,SBD,Multi-ply
2,Anna Blakley,O,,USA,187.5,115,162.5,465,60,F,,SBD,Multi-ply
1,Peals,T3,18-19,Canada,130,82.5,150,362.5,67.5,F,,SBD,Multi-ply
1,Mariah Liggett,O,,USA,227.5,120,212.5,560,67.5,F,1958,SBD,Multi-ply
1,Morgan #3,T3,18-19,UK,130,60,132.5,322.5,75,F,1975,SBD,Multi-ply
1,Nancy Dangerfield,O,,USA,200,100,220,520,75,F,1956,SBD,Multi-ply
2,Liz Allworth,O,,South Africa,195,107.5,190,492.5,75,F,,SBD,Multi-ply
3,Krista Ford,O,,USA,175,122.5,192.5,490,75,F,1966,SBD,Multi-ply
4,Stephanie van de Weghe,O,,USA,185,105,195,485,75,F,1961,SBD,Multi-ply
1,Tamara Rainwater-Grimwood,O,,USA,245,160,235,640,82.5,F,1964,SBD,Multi-ply
1,Andreas Schulte,M2,45-49,South Africa,155,77.5,195,427.5,82.5,F,,SBD,Multi-ply
1,Anita Bruwer,M3,50-54,South Africa,182.5,92.5,177.5,452.5,82.5,F,1939,SBD,Multi-ply
1,Chantal Coulon,O,,France,130,102.5,160,392.5,90,F,,SBD,Multi-ply
1,Maris Sternberg,O,,USA,62.5,62.5,65,190,90+,F,1948,SBD,Multi-ply
1,Maris Sternberg,M1,40-44,USA,137.5,72.5,120,330,90+,F,1948,SBD,Multi-ply
1,Ernesto Milian,O,,Puerto Rico,205,115,222.5,542.5,56,M,1947,SBD,Multi-ply
2,Luca Cavagna,O,,Italy,170,85,175,430,56,M,1973,SBD,Multi-ply
1,Avtar Singh,T2,16-17,UK,115,45,135,295,60,M,,SBD,Multi-ply
1,John Nzuza,O,,South Africa,220,130,190,540,60,M,,SBD,Multi-ply
2,Phil Randall,O,,UK,165,115,205,485,60,M,,SBD,Multi-ply
1,Nori Kawasaki,M5,60-64,USA,155,105,177.5,437.5,60,M,1928,SBD,Multi-ply
1,Hugo,T3,18-19,South Africa,190,160,200,550,67.5,M,,SBD,Multi-ply
1,David Oakley,J,20-23,UK,170,100,205,475,67.5,M,,SBD,Multi-ply
1,David Mannering,O,,UK,250,175,250,675,67.5,M,1960,SBD,Multi-ply
2,Avtar Singh,O,,UK,242.5,155,240,637.5,67.5,M,,SBD,Multi-ply
3,Affal,O,,South Africa,235,135,235,605,67.5,M,,SBD,Multi-ply
4,Messaoudi,O,,France,200,125,190,515,67.5,M,,SBD,Multi-ply
5,Luca Segrer,O,,Italy,180,110,210,500,67.5,M,1969,SBD,Multi-ply
1,David Berg,M1,40-44,UK,220,125,235,580,67.5,M,1950,SBD,Multi-ply
1,James Capehart,M3,50-54,USA,62.5,62.5,187.5,312.5,67.5,M,1942,SBD,Multi-ply
1,Evans,M4,55-59,UK,145,95,170,410,67.5,M,,SBD,Multi-ply
1,Vladimir Younger,M9,80-84,Australia,100,67.5,150,317.5,67.5,M,1913,SBD,Multi-ply
1,Nelson Caetano,T3,18-19,France,200,100,230,530,75,M,,SBD,Multi-ply
1,Amira,J,20-23,South Africa,220,127.5,230,577.5,75,M,,SBD,Multi-ply
2,A. Bracegirdle,J,20-23,UK,190,100,242.5,532.5,75,M,,SBD,Multi-ply
3,W. Debruyne,J,20-23,Belgium,155,100,205,460,75,M,1973,SBD,Multi-ply
4,Lewis,J,20-23,UK,135,105,180,420,75,M,,SBD,Multi-ply
1,Jay Rosciglione,O,,USA,302.5,170,287.5,760,75,M,1956,SBD,Multi-ply
2,Graham Ward,O,,UK,250,145,280,675,75,M,,SBD,Multi-ply
3,Giorgio Eccheli,O,,Italy,295,135,235,665,75,M,1962,SBD,Multi-ply
4,David Rees,O,,UK,235,145,240,620,75,M,,SBD,Multi-ply
5,Hugo,O,,South Africa,230,130,200,560,75,M,,SBD,Multi-ply
6,Canal,O,,France,180,140,200,520,75,M,,SBD,Multi-ply
1,Troy Hicks,M2,45-49,USA,205,127.5,265,597.5,75,M,1946,SBD,Multi-ply
2,George Fosmire,M2,45-49,USA,222.5,127.5,232.5,582.5,75,M,,SBD,Multi-ply
3,G. Isaac,M2,45-49,UK,210,125,240,575,75,M,,SBD,Multi-ply
1,Fesoucrl,M3,50-54,France,172.5,90,202.5,465,75,M,,SBD,Multi-ply
1,Richard Crossland,T3,18-19,UK,240,140,240,620,82.5,M,,SBD,Multi-ply
2,Sleinburg,T3,18-19,South Africa,255,127.5,225,607.5,82.5,M,,SBD,Multi-ply
DQ,Bales,T3,18-19,USA,,,,,82.5,M,,SBD,Multi-ply
1,Rousouw,J,20-23,South Africa,255,160,265,680,82.5,M,,SBD,Multi-ply
2,Vallaent,J,20-23,Belgium,240,155,240,635,82.5,M,,SBD,Multi-ply
DQ,Bowers,J,20-23,USA,,,,,82.5,M,,SBD,Multi-ply
1,Enzo Vaccari,O,,Italy,290,180,270,740,82.5,M,1962,SBD,Multi-ply
2,Peter Bartlett,O,,UK,285,197.5,250,732.5,82.5,M,1960,SBD,Multi-ply
3,Rohan Archibald,O,,South Africa,270,180,240,690,82.5,M,,SBD,Multi-ply
4,Rycerz,O,,France,245,150,240,635,82.5,M,,SBD,Multi-ply
5,Murray,O,,UK,265,110,250,625,82.5,M,,SBD,Multi-ply
6,Burl,O,,UK,215,160,200,575,82.5,M,,SBD,Multi-ply
1,Jones,M1,40-44,UK,240,162.5,255,657.5,82.5,M,,SBD,Multi-ply
DQ,Sharp,M1,40-44,USA,,,,,82.5,M,,SBD,Multi-ply
1,Baaeyens,M2,45-49,Belgium,170,130,225,525,82.5,M,,SBD,Multi-ply
DQ,Anthony Fratto,M2,45-49,USA,,,,,82.5,M,1947,SBD,Multi-ply
1,M. Brown,M3,50-54,UK,265,157.5,277.5,700,82.5,M,,SBD,Multi-ply
2,Terry Dangerfield,M3,50-54,USA,240,145,275,660,82.5,M,1941,SBD,Multi-ply
1,Bill Ramsrud,M6,65-69,USA,192.5,112.5,227.5,532.5,82.5,M,1928,SBD,Multi-ply
1,Petit,T3,18-19,France,205,130,250,585,90,M,,SBD,Multi-ply
1,Nickie Blackie,J,20-23,South Africa,295,210,250,755,90,M,1969,SBD,Multi-ply
2,Frank Mombert,J,20-23,Belgium,270,150,300,720,90,M,1970,SBD,Multi-ply
3,Yaakov,J,20-23,Israel,185,140,230,555,90,M,,SBD,Multi-ply
4,S. Allsop,J,20-23,UK,200,122.5,220,542.5,90,M,,SBD,Multi-ply
1,Arthur Croone,O,,USA,350,200,317.5,867.5,90,M,,SBD,Multi-ply
2,Neville Primich,O,,South Africa,340,215,300,855,90,M,1967,SBD,Multi-ply
3,Steve Brandon,O,,UK,340,200,300,840,90,M,,SBD,Multi-ply
4,Martin Donovan,O,,UK,295,197.5,307.5,800,90,M,1973,SBD,Multi-ply
5,Frank Hoskins,O,,UK,320,210,250,780,90,M,,SBD,Multi-ply
6,Hirst,O,,South Africa,290,165,280,735,90,M,,SBD,Multi-ply
7,Didier Theux,O,,France,255,185,280,720,90,M,1958,SBD,Multi-ply
8,Walter Finocchio,O,,France,265,145,282.5,692.5,90,M,1970,SBD,Multi-ply
9,Enrico Bianchi,O,,Italy,245,165,237.5,647.5,90,M,1957,SBD,Multi-ply
10,Alon Ben-Shahar,O,,,230,195,220,645,90,M,1964,SBD,Multi-ply
11,Bosschaert,O,,Belgium,220,140,230,590,90,M,,SBD,Multi-ply
DQ,Rich Ludy,O,,USA,315,215,,,90,M,,SBD,Multi-ply
DQ,S Kruger,O,,South Africa,330,170,,,90,M,,SBD,Multi-ply
DQ,Edward Downing,O,,South Africa,320,220,,,90,M,1969,SBD,Multi-ply
1,Avtar Singh,M1,40-44,UK,275,195,260,730,90,M,,SBD,Multi-ply
1,Chris Bannagham,M3,50-54,UK,250,152.5,260,662.5,90,M,1942,SBD,Multi-ply
2,W. Davel,M2,45-49,South Africa,190,130,250,570,90,M,,SBD,Multi-ply
1,James Rouse,M3,50-54,USA,262.5,192.5,250,705,90,M,1941,SBD,Multi-ply
2,Dalvean,M3,50-54,Australia,210,150,235,595,90,M,,SBD,Multi-ply
1,Brian Collins,M4,55-59,South Africa,240,160,250,650,90,M,,SBD,Multi-ply
2,LB Baker,M4,55-59,USA,182.5,155,227.5,565,90,M,1937,SBD,Multi-ply
1,Burt Rosenfield,M5,60-64,USA,190,152.5,210,552.5,90,M,1931,SBD,Multi-ply
1,Riley,T3,18-19,South Africa,230,160,220,610,100,M,,SBD,Multi-ply
1,Skouboe,J,20-23,Denmark,280,205,227.5,712.5,100,M,,SBD,Multi-ply
1,Jamie Carney,O,,UK,400,255,360,1015,100,M,,SBD,Multi-ply
2,Kevin Hammerton,O,,UK,350,200,325,875,100,M,1966,SBD,Multi-ply
3,Allan Kragh,O,,Denmark,312.5,195,307.5,815,100,M,,SBD,Multi-ply
4,Anderson,O,,UK,295,215,285,795,100,M,,SBD,Multi-ply
5,Niekert Van,O,,South Africa,325,205,265,795,100,M,,SBD,Multi-ply
6,Martin,O,,UK,265,180,300,745,100,M,,SBD,Multi-ply
1,Joe DeVerville,M1,40-44,USA,282.5,207.5,282.5,772.5,100,M,1948,SBD,Multi-ply
2,J. Gilchrist,M1,40-44,UK,245,137.5,275,657.5,100,M,,SBD,Multi-ply
3,Deliere,M1,40-44,USA,25,217.5,60,302.5,100,M,,SBD,Multi-ply
1,Bill West #1,M2,45-49,UK,362.5,190,320,872.5,100,M,1946,SBD,Multi-ply
2,R. Ferriere,M2,45-49,South Africa,290,172.5,255,717.5,100,M,,SBD,Multi-ply
1,Badenhorst,M3,50-54,South Africa,250,162.5,270,682.5,100,M,,SBD,Multi-ply
2,Jean Davrainville,M3,50-54,France,245,140,260,645,100,M,1940,SBD,Multi-ply
1,Jones,M4,55-59,UK,180,142.5,220,542.5,100,M,,SBD,Multi-ply
2,John Schulte,M4,55-59,South Africa,175,105,210,490,100,M,,SBD,Multi-ply
1,Mark Rowland,T3,18-19,USA,307.5,210,297.5,815,110,M,1973,SBD,Multi-ply
2,Justin Koenig,T3,18-19,South Africa,320,167.5,300,787.5,110,M,,SBD,Multi-ply
1,Curtis Lesley,O,,USA,385,265,327.5,977.5,110,M,,SBD,Multi-ply
2,Andy Bowman,O,,UK,335,230,312.5,877.5,110,M,1963,SBD,Multi-ply
3,John Walker #5,O,,UK,300,230,325,855,110,M,1955,SBD,Multi-ply
4,Jean-Marc Chenin,O,,France,280,207.5,280,767.5,110,M,1964,SBD,Multi-ply
DQ,H Van Wyk,M1,40-44,South Africa,,,,,110,M,,SBD,Multi-ply
1,Johnny Kay,M2,45-49,South Africa,280,192.5,270,742.5,110,M,,SBD,Multi-ply
2,Butch Frye,M2,45-49,USA,242.5,175,267.5,685,110,M,1944,SBD,Multi-ply
1,Larry Sandberg,M3,50-54,USA,262.5,190,277.5,730,110,M,1940,SBD,Multi-ply
2,Mike Brown,M3,50-54,UK,275,130,300,705,110,M,1943,SBD,Multi-ply
1,J. Seabrook,M4,55-59,UK,242.5,130,220,592.5,110,M,,SBD,Multi-ply
1,Scott Warman,O,,USA,402.5,240,375,1017.5,125,M,1956,SBD,Multi-ply
2,John Neighbour,O,,UK,410,252.5,352.5,1015,125,M,1954,SBD,Multi-ply
3,Johan Rheeder,O,,South Africa,290,210,315,815,125,M,,SBD,Multi-ply
4,Porta,O,,Italy,270,157.5,305,732.5,125,M,,SBD,Multi-ply
5,Sullic,O,,Italy,250,180,295,725,125,M,,SBD,Multi-ply
1,Enrico Brusco,M1,40-44,Italy,305,220,280,805,125,M,1953,SBD,Multi-ply
1,David Carter #1,M2,45-49,UK,300,150,365,815,125,M,1947,SBD,Multi-ply
1,Andy Bolton,O,,UK,400,220,382.5,1002.5,140,M,1970,SBD,Multi-ply
2,Kieran Kidder,O,,USA,410,240,300,950,140,M,1969,SBD,Multi-ply
3,William Nichols,O,,USA,390,220,295,905,140,M,1958,SBD,Multi-ply
4,Vaal De,O,,South Africa,370,210,325,905,140,M,,SBD,Multi-ply
5,Mike Barker,O,,South Africa,345,220,320,885,140,M,,SBD,Multi-ply
1,Phil Niemandt,M1,40-44,South Africa,400,260,320,980,140,M,1952,SBD,Multi-ply
2,E. Mohan,M1,40-44,USA,320,200,250,770,140,M,,SBD,Multi-ply
3,Alex Cloete,M1,40-44,South Africa,200,120,235,555,140,M,,SBD,Multi-ply
1,Brian Meek,M2,45-49,USA,345,220,302.5,867.5,140,M,1946,SBD,Multi-ply
1,Peter Tregloan,O,,UK,420,245,375,1040,140+,M,1957,SBD,Multi-ply
2,James Voronin,O,,USA,390,275,292.5,957.5,140+,M,1964,SBD,Multi-ply
3,Eduardo Stazi,O,,Italy,315,140,290,745,140+,M,,SBD,Multi-ply
