Division,WeightClassKg,Place,Name,Team,BodyweightKg,Best3SquatKg,Best3BenchKg,Best3DeadliftKg,TotalKg,Equipment,Event,Sex
Girls,44.23,1,Siriah Rodriguez,San Angelo Lake View,42.09,68.04,38.56,77.11,183.7,Single-ply,SBD,F
Girls,44.23,2,Courtney Wooddell,Colorado City Colorado,43.45,61.23,31.75,70.31,163.29,Single-ply,SBD,F
Girls,44.23,DQ,Aerica Lara,Midland Lee,44.18,,,,,Single-ply,SBD,F
Girls,47.85,1,Alzay Cortes,Midland Lee,47.08,74.84,45.36,117.93,238.14,Single-ply,SBD,F
Girls,47.85,2,Hannah Reyes,Lockney,47.81,92.99,49.9,79.38,222.26,Single-ply,SBD,F
Girls,47.85,3,Sydney Fuentes,Snyder,47.17,90.72,52.16,68.04,210.92,Single-ply,SBD,F
Girls,47.85,4,Jocelyn Marroquin,Lamesa,47.72,90.72,34.02,86.18,210.92,Single-ply,SBD,F
Girls,47.85,5,Ashley Gonzalez,Midland Lee,47.72,56.7,36.29,68.04,161.03,Single-ply,SBD,F
Girls,47.85,6,Victoria Gutierrez,Sweetwater,45.99,34.02,34.02,68.04,136.08,Single-ply,SBD,F
Girls,51.94,1,Kaycee Valenzual,Denver City,49.9,68.04,34.02,83.91,185.97,Single-ply,SBD,F
Girls,56.02,1,Jaci Valadez,Snyder,55.34,133.81,63.5,129.27,326.59,Single-ply,SBD,F
Girls,56.02,2,Andrea Rascon,Midland Lee,55.97,95.25,49.9,106.59,251.74,Single-ply,SBD,F
Girls,56.02,3,Mckenna Lentz,Colorado City Colorado,53.98,92.99,49.9,90.72,233.6,Single-ply,SBD,F
Girls,56.02,4,Kayla Bustamante,Midland Lee,54.16,68.04,34.02,83.91,185.97,Single-ply,SBD,F
Girls,56.02,5,Alicia Farr,San Angelo Lake View,53.89,61.23,38.56,83.91,183.7,Single-ply,SBD,F
Girls,56.02,6,Morgan Martinez,Colorado City Colorado,54.52,72.57,34.02,74.84,181.44,Single-ply,SBD,F
Girls,56.02,7,Julianna Valdez,San Angelo Lake View,53.07,58.97,38.56,77.11,174.63,Single-ply,SBD,F
Girls,56.02,8,Sophee Goltl,San Angelo Lake View,52.98,70.31,34.02,68.04,172.37,Single-ply,SBD,F
Girls,56.02,9,Kennedy McNeal,Colorado City Colorado,53.52,65.77,34.02,47.63,147.42,Single-ply,SBD,F
Girls,56.02,DQ,Alison Perez,Midland Lee,55.61,77.11,,,,Single-ply,SBD,F
Girls,60.1,1,Sidni Hunter,Snyder,59.87,138.35,65.77,129.27,333.39,Single-ply,SBD,F
Girls,60.1,2,Aryia Morales,San Angelo Lake View,58.24,90.72,43.09,88.45,222.26,Single-ply,SBD,F
Girls,60.1,3,Vanessa Bettencourt,Colorado City Colorado,59.6,86.18,34.02,86.18,206.38,Single-ply,SBD,F
Girls,60.1,4,Skylar Juarez,Colorado City Colorado,56.52,83.91,34.02,81.65,199.58,Single-ply,SBD,F
Girls,60.1,5,Andrea Cantu,Lamesa,56.15,72.57,24.95,74.84,172.37,Single-ply,SBD,F
Girls,60.1,6,Kassandra Ramirez,Lockney,58.69,65.77,38.56,68.04,172.37,Single-ply,SBD,F
Girls,60.1,DQ,Jordyn Varner,Lockney,58.88,104.33,,,,Single-ply,SBD,F
Girls,67.36,1,Tegan Dickson,Snyder,66.22,181.44,86.18,167.83,435.45,Single-ply,SBD,F
Girls,67.36,2,Sierra Molina,San Angelo Lake View,66.68,90.72,56.7,113.4,260.82,Single-ply,SBD,F
Girls,67.36,3,Ellesah Uresti,Midland Lee,65.32,97.52,38.56,115.67,251.74,Single-ply,SBD,F
Girls,67.36,4,Nikaya Ontiveros,Denver City,64.41,102.06,43.09,104.33,249.48,Single-ply,SBD,F
Girls,67.36,5,Noemy Diaz,Sweetwater,61.23,92.99,34.02,92.99,219.99,Single-ply,SBD,F
Girls,67.36,6,Kadence Martin,Colorado City Colorado,67.31,72.57,31.75,95.25,199.58,Single-ply,SBD,F
Girls,67.36,7,Vanessa Longoria,San Angelo Lake View,66.41,79.38,38.56,79.38,197.31,Single-ply,SBD,F
Girls,67.36,8,Akyesha Emerson,Colorado City Colorado,63.78,77.11,31.75,79.38,188.24,Single-ply,SBD,F
Girls,67.36,9,Torre Cruse,San Angelo Lake View,60.6,70.31,38.56,68.04,176.9,Single-ply,SBD,F
Girls,67.36,10,Kerstin Perez,San Angelo Lake View,61.6,56.7,40.82,68.04,165.56,Single-ply,SBD,F
Girls,75.07,1,Saraya Velasquez,Snyder,68.04,195.04,90.72,167.83,453.59,Single-ply,SBD,F
Girls,75.07,2,Destiny Read,Colorado City Colorado,69.04,113.4,49.9,95.25,258.55,Single-ply,SBD,F
Girls,75.07,3,Navy Boone,Colorado City Colorado,74.84,102.06,40.82,113.4,256.28,Single-ply,SBD,F
Girls,75.07,4,Nahomay Lara,Midland Lee,74.3,92.99,54.43,102.06,249.48,Single-ply,SBD,F
Girls,75.07,5,Kellie Arguijo,Lamesa,73.75,90.72,31.75,86.18,208.65,Single-ply,SBD,F
Girls,75.07,6,Kira Rodriques,Lamesa,70.03,77.11,38.56,81.65,197.31,Single-ply,SBD,F
Girls,82.33,1,Bonnie Jasper,Snyder,77.56,183.7,99.79,151.95,435.45,Single-ply,SBD,F
Girls,82.33,2,Yamilette Martinez,Lockney,81.47,140.61,70.31,138.35,349.27,Single-ply,SBD,F
Girls,82.33,3,Danielle Fonseca,New Home,82.15,111.13,65.77,104.33,281.23,Single-ply,SBD,F
Girls,82.33,4,Elyssa Carrasco,Midland Lee,78.93,106.59,52.16,102.06,260.82,Single-ply,SBD,F
Girls,82.33,5,Mia Williams,New Home,80.88,97.52,54.43,99.79,251.74,Single-ply,SBD,F
Girls,82.33,6,Alyse Galindo,Lamesa,79.29,86.18,38.56,86.18,210.92,Single-ply,SBD,F
Girls,82.33,7,Bailey Garcia,Colorado City Colorado,78.47,70.31,43.09,92.99,206.38,Single-ply,SBD,F
Girls,90.04,1,Baylee Green,Snyder,86.18,151.95,70.31,124.74,347,Single-ply,SBD,F
Girls,90.04,2,Yolanda Ramirez,San Angelo Lake View,82.46,113.4,68.04,124.74,306.17,Single-ply,SBD,F
Girls,90.04,3,Makayla Gonzales,Lamesa,84.73,111.13,65.77,117.93,294.84,Single-ply,SBD,F
Girls,90.04,4,Jaden Aguirre,Midland Lee,87.09,124.74,54.43,108.86,288.03,Single-ply,SBD,F
Girls,100.02,1,Leslie Ramos,Midland Lee,97.79,136.08,68.04,136.08,340.19,Single-ply,SBD,F
Girls,100.02,2,Yulissa Vega,San Angelo Lake View,98.34,115.67,65.77,86.18,267.62,Single-ply,SBD,F
Girls,100.02,3,Alex Marin,Denver City,91.17,83.91,40.82,83.91,208.65,Single-ply,SBD,F
Girls,100.02,DQ,Kayla Carroll,New Home,90.36,92.99,,,,Single-ply,SBD,F
Girls,117.71,1,Hailee Widener,Lockney,108.5,154.22,79.38,131.54,365.14,Single-ply,SBD,F
Girls,117.71,2,Kaylyn Hayes,San Angelo Lake View,105.23,124.74,74.84,124.74,324.32,Single-ply,SBD,F
Girls,117.71,3,Maribel Tovar,Sweetwater,106.23,90.72,38.56,92.99,222.26,Single-ply,SBD,F
Girls,117.71,4,Rachel McNeal,Colorado City Colorado,102.69,74.84,40.82,88.45,204.12,Single-ply,SBD,F
Girls,,NS,Yadhira Madrid,Denver City,,,,,,Single-ply,SBD,F
Girls,,NS,Tatum Bermea,Lamesa,,,,,,Single-ply,SBD,F
Girls,,NS,Charis Hall,New Home,,,,,,Single-ply,SBD,F
