Division,WeightClassKg,Place,Name,Team,BodyweightKg,Best3SquatKg,Best3BenchKg,Best3DeadliftKg,TotalKg,Equipment,Event,Sex
Girls,44.23,1,Jennifer Navarrete,Kyle Lehman,43.27,86.18,34.02,81.65,201.85,Single-ply,SBD,F
Girls,44.23,2,Deandra Avalos,Geronimo Navarro,40.82,65.77,40.82,70.31,176.9,Single-ply,SBD,F
Girls,44.23,3,Abby Reyes,Luling,41.82,43.09,22.68,43.09,108.86,Single-ply,SBD,F
Girls,47.85,1,Jayla Arellano,Kyle Lehman,46.99,92.99,52.16,120.2,265.35,Single-ply,SBD,F
Girls,47.85,2,Madison Sanchez,Taylor,47.81,97.52,56.7,104.33,258.55,Single-ply,SBD,F
Girls,47.85,3,Alyssa Martinez,Kyle Lehman,46.27,88.45,40.82,102.06,231.33,Single-ply,SBD,F
Girls,47.85,4,Bella Henry,Geronimo Navarro,47.26,88.45,49.9,81.65,219.99,Single-ply,SBD,F
Girls,47.85,5,McKenzie Dees,Luling,46.54,88.45,34.02,92.99,215.46,Single-ply,SBD,F
Girls,47.85,6,Lilanexis Gutierrez,Kyle Lehman,45.99,79.38,38.56,90.72,208.65,Single-ply,SBD,F
Girls,47.85,7,Kailyn Mendez,Lockhart,47.26,61.23,27.22,72.57,161.03,Single-ply,SBD,F
Girls,51.94,1,Gia Ross,Seguin,50.89,120.2,70.31,115.67,306.17,Single-ply,SBD,F
Girls,51.94,2,Regan Boissiere,Universal City Randolph,50.53,104.33,45.36,124.74,274.42,Single-ply,SBD,F
Girls,51.94,3,Julianna Jongolnee,Kyle Lehman,51.89,104.33,43.09,117.93,265.35,Single-ply,SBD,F
Girls,51.94,4,Jasmine Jaimes,Kyle Lehman,51.53,86.18,45.36,108.86,240.4,Single-ply,SBD,F
Girls,51.94,5,Erika Tormozov,Buda Hays,48.44,86.18,49.9,92.99,229.06,Single-ply,SBD,F
Girls,51.94,6,Madison Gwodz,Karnes City,51.17,86.18,45.36,92.99,224.53,Single-ply,SBD,F
Girls,51.94,7,Geneva Reyes,Kyle Lehman,48.63,88.45,40.82,88.45,217.72,Single-ply,SBD,F
Girls,51.94,8,Ashley Grodman,Bandera,51.17,81.65,43.09,88.45,213.19,Single-ply,SBD,F
Girls,51.94,9,Anjeanette Garcia,Kyle Lehman,50.35,86.18,29.48,92.99,208.65,Single-ply,SBD,F
Girls,51.94,10,Alyssa Mendez,Kyle Lehman,50.62,79.38,40.82,81.65,201.85,Single-ply,SBD,F
Girls,51.94,11,Haley Magallane,Luling,51.62,68.04,40.82,83.91,192.78,Single-ply,SBD,F
Girls,51.94,12,Harmony Swanerbury,Hays Johnson,49.53,72.57,34.02,83.91,190.51,Single-ply,SBD,F
Girls,51.94,13,Arianna Gutierrez,Karnes City,49.62,63.5,34.02,79.38,176.9,Single-ply,SBD,F
Girls,51.94,14,Nitiza Candoza,Lockhart,51.8,61.23,24.95,74.84,161.03,Single-ply,SBD,F
Girls,51.94,DQ,Raven Boissiere,Universal City Randolph,50.44,,43.09,115.67,,Single-ply,SBD,F
Girls,56.02,1,Caitlin Watson,Bandera,52.98,138.35,86.18,138.35,362.87,Single-ply,SBD,F
Girls,56.02,2,Kim Salinas,Bandera,54.52,127.01,56.7,138.35,322.05,Single-ply,SBD,F
Girls,56.02,3,Mia Rodriguez,Taylor,54.52,124.74,58.97,131.54,315.25,Single-ply,SBD,F
Girls,56.02,4,Victoria Perez,Taylor,54.43,111.13,63.5,111.13,285.76,Single-ply,SBD,F
Girls,56.02,5,Kinley Rhodes,Seguin,54.79,102.06,54.43,120.2,276.69,Single-ply,SBD,F
Girls,56.02,6,Vivianie Luna,Kyle Lehman,55.52,111.13,45.36,106.59,263.08,Single-ply,SBD,F
Girls,56.02,7,Halle Lanham,Geronimo Navarro,55.79,95.25,56.7,102.06,254.01,Single-ply,SBD,F
Girls,56.02,8,Ingrid Pena,Buda Hays,52.98,86.18,47.63,102.06,235.87,Single-ply,SBD,F
Girls,56.02,9,Kiara Johnson,Karnes City,55.07,83.91,38.56,88.45,210.92,Single-ply,SBD,F
Girls,60.1,1,Brittany Kelley,Karnes City,59.33,145.15,61.23,140.61,347,Single-ply,SBD,F
Girls,60.1,2,Kayshawn Fields,Taylor,58.06,113.4,54.43,124.74,292.57,Single-ply,SBD,F
Girls,60.1,3,Brooke Davenport,Kyle Lehman,58.42,113.4,63.5,115.67,292.57,Single-ply,SBD,F
Girls,60.1,4,Alyssa Ysla,Kyle Lehman,58.79,102.06,54.43,122.47,278.96,Single-ply,SBD,F
Girls,60.1,5,Viviana Villalobos,Kyle Lehman,58.6,95.25,45.36,108.86,249.48,Single-ply,SBD,F
Girls,60.1,6,Sophia Lindlan,Universal City Randolph,59.69,97.52,47.63,92.99,238.14,Single-ply,SBD,F
Girls,60.1,7,Jessica Presloch,Seguin,58.88,86.18,47.63,102.06,235.87,Single-ply,SBD,F
Girls,60.1,8,Maddisen Burnett,Lockhart,58.06,86.18,52.16,95.25,233.6,Single-ply,SBD,F
Girls,60.1,9,Saanai Cumberbach,Universal City Randolph,59.87,90.72,47.63,92.99,231.33,Single-ply,SBD,F
Girls,60.1,10,Gabby Parra,Lockhart,56.88,92.99,49.9,86.18,229.06,Single-ply,SBD,F
Girls,60.1,11,Abigail Breitback,Universal City Randolph,57.79,81.65,40.82,95.25,217.72,Single-ply,SBD,F
Girls,60.1,12,Allison Stevens,Universal City Randolph,59.15,86.18,45.36,86.18,217.72,Single-ply,SBD,F
Girls,60.1,13,Itzel Riquejo,Kyle Lehman,57.7,77.11,29.48,102.06,208.65,Single-ply,SBD,F
Girls,60.1,14,Ahjalei Davis,Taylor,59.15,72.57,40.82,88.45,201.85,Single-ply,SBD,F
Girls,60.1,15,Alyssa Messina,Pflugerville Weiss,58.97,45.36,29.48,74.84,149.69,Single-ply,SBD,F
Girls,60.1,16,Brentney Bowman,Pflugerville Connally,56.15,47.63,34.02,61.23,142.88,Single-ply,SBD,F
Girls,60.1,DQ,Maggie Ryines,Taylor,59.51,113.4,,99.79,,Single-ply,SBD,F
Girls,67.36,1,Brooke Gisler,Karnes City,66.04,142.88,70.31,113.4,326.59,Single-ply,SBD,F
Girls,67.36,2,Brooke Carle,Geronimo Navarro,66.32,117.93,72.57,131.54,322.05,Single-ply,SBD,F
Girls,67.36,3,Kylee Hensley,Bandera,66.59,136.08,72.57,106.59,315.25,Single-ply,SBD,F
Girls,67.36,4,Penelope Garcia,Bandera,60.33,111.13,63.5,136.08,310.71,Single-ply,SBD,F
Girls,67.36,5,Andrea Noriega,Seguin,66.77,115.67,56.7,124.74,297.1,Single-ply,SBD,F
Girls,67.36,6,Ashley Gosch,Geronimo Navarro,62.14,111.13,63.5,120.2,294.84,Single-ply,SBD,F
Girls,67.36,7,Ofelia Macias,Bandera,62.87,120.2,65.77,108.86,294.84,Single-ply,SBD,F
Girls,67.36,8,Amasti Canales,Seguin,63.5,102.06,49.9,136.08,288.03,Single-ply,SBD,F
Girls,67.36,9,Jessilyn Fuentes,Taylor,66.86,108.86,61.23,113.4,283.5,Single-ply,SBD,F
Girls,67.36,10,Aaliyah Tamez,Pflugerville,64.59,115.67,52.16,99.79,267.62,Single-ply,SBD,F
Girls,67.36,11,Alexis Sernil,Karnes City,67.31,102.06,52.16,113.4,267.62,Single-ply,SBD,F
Girls,67.36,12,Adyson Trevino,Seguin,64.68,92.99,45.36,124.74,263.08,Single-ply,SBD,F
Girls,67.36,13,Lovielea Hankins,Universal City Randolph,67.31,102.06,43.09,113.4,258.55,Single-ply,SBD,F
Girls,67.36,14,Emily Garcia,Bandera,61.78,77.11,56.7,108.86,242.67,Single-ply,SBD,F
Girls,67.36,15,Izabella Rios,Taylor,61.6,90.72,49.9,95.25,235.87,Single-ply,SBD,F
Girls,67.36,16,Sarah Howard,Geronimo Navarro,66.32,88.45,61.23,79.38,229.06,Single-ply,SBD,F
Girls,67.36,17,Gisel Martinez,Universal City Randolph,63.41,83.91,36.29,95.25,215.46,Single-ply,SBD,F
Girls,67.36,18,Natalia Bazan,Hays Johnson,66.22,70.31,22.68,86.18,179.17,Single-ply,SBD,F
Girls,67.36,19,Astrid Cardenas,Luling,64.05,54.43,40.82,77.11,172.37,Single-ply,SBD,F
Girls,67.36,20,Carla Ramirez,Luling,64.68,56.7,24.95,77.11,158.76,Single-ply,SBD,F
Girls,75.07,1,MaKaela Wyles,Lockhart,68.95,138.35,92.99,129.27,360.61,Single-ply,SBD,F
Girls,75.07,2,Anissa Burnham,Buda Hays,71.49,142.88,61.23,138.35,342.46,Single-ply,SBD,F
Girls,75.07,3,Esperanza Zuniga,Kyle Lehman,74.3,138.35,63.5,124.74,326.59,Single-ply,SBD,F
Girls,75.07,4,Anna Freeman,Bandera,69.67,117.93,79.38,127.01,324.32,Single-ply,SBD,F
Girls,75.07,5,Kaitlin Menchaca,Geronimo Navarro,68.95,108.86,79.38,111.13,299.37,Single-ply,SBD,F
Girls,75.07,6,Isa Vasquez-Villarreal,Buda Hays,73.57,102.06,58.97,113.4,274.42,Single-ply,SBD,F
Girls,75.07,7,Alivia Avila,Seguin,73.66,102.06,54.43,113.4,269.89,Single-ply,SBD,F
Girls,75.07,8,Riley Brittain,Seguin,69.04,97.52,52.16,111.13,260.82,Single-ply,SBD,F
Girls,75.07,9,Brianna Craighead,Kyle Lehman,72.3,95.25,49.9,104.33,249.48,Single-ply,SBD,F
Girls,75.07,10,Magesty Holland,Universal City Randolph,68.95,97.52,45.36,104.33,247.21,Single-ply,SBD,F
Girls,75.07,11,Mia Carrizales,Taylor,74.66,95.25,49.9,102.06,247.21,Single-ply,SBD,F
Girls,75.07,12,Laisha Perez,Kyle Lehman,73.57,72.57,49.9,108.86,231.33,Single-ply,SBD,F
Girls,75.07,13,Katelyn Castillega,Luling,71.58,92.99,47.63,83.91,224.53,Single-ply,SBD,F
Girls,75.07,14,Jane Simmons,Lockhart,68.76,68.04,38.56,102.06,208.65,Single-ply,SBD,F
Girls,75.07,15,Amber Alvarez,Lockhart,72.57,81.65,38.56,86.18,206.38,Single-ply,SBD,F
Girls,82.33,1,Kayla DeLeon,Geronimo Navarro,79.02,136.08,86.18,133.81,356.07,Single-ply,SBD,F
Girls,82.33,2,Alexandra Arias,Taylor,80.65,136.08,63.5,138.35,337.93,Single-ply,SBD,F
Girls,82.33,3,Izabella Vidales,Taylor,81.92,136.08,61.23,129.27,326.59,Single-ply,SBD,F
Girls,82.33,4,Raquel Ruiz,Buda Hays,80.65,122.47,52.16,133.81,308.44,Single-ply,SBD,F
Girls,82.33,5,America Rojas,Taylor,76.2,117.93,56.7,104.33,278.96,Single-ply,SBD,F
Girls,82.33,6,Natalie Zapata,Kyle Lehman,76.66,106.59,54.43,115.67,276.69,Single-ply,SBD,F
Girls,82.33,7,Arianna Prill,Kyle Lehman,76.84,117.93,56.7,102.06,276.69,Single-ply,SBD,F
Girls,82.33,8,Amara Davis,Universal City Randolph,75.39,81.65,52.16,115.67,249.48,Single-ply,SBD,F
Girls,82.33,9,Lydia Lacey,Bandera,77.38,90.72,49.9,90.72,231.33,Single-ply,SBD,F
Girls,82.33,10,Kayla Stevens,Seguin,79.83,70.31,54.43,102.06,226.8,Single-ply,SBD,F
Girls,82.33,11,Destiny Bowles,Universal City Randolph,78.93,86.18,36.29,90.72,213.19,Single-ply,SBD,F
Girls,82.33,DQ,Alivia Saenz,Hays Johnson,80.01,,38.56,81.65,,Single-ply,SBD,F
Girls,90.04,1,Emilee Delarosa,Seguin,82.74,142.88,65.77,136.08,344.73,Single-ply,SBD,F
Girls,90.04,2,Larissa Acosta,Kyle Lehman,83.46,122.47,49.9,131.54,303.91,Single-ply,SBD,F
Girls,90.04,3,Yvette Gutierrez,Taylor,82.74,117.93,58.97,124.74,301.64,Single-ply,SBD,F
Girls,90.04,4,Raylynn Brown,Luling,89.54,104.33,65.77,124.74,294.84,Single-ply,SBD,F
Girls,90.04,5,Maria Romero,Buda Hays,83.46,115.67,61.23,106.59,283.5,Single-ply,SBD,F
Girls,90.04,6,Kaelin Earl,Seguin,86.27,81.65,43.09,104.33,229.06,Single-ply,SBD,F
Girls,90.04,7,Lauren Kolbe,Seguin,89.18,77.11,47.63,102.06,226.8,Single-ply,SBD,F
Girls,100.02,1,Olivia Monsevais,Karnes City,96.25,147.42,77.11,142.88,367.41,Single-ply,SBD,F
Girls,100.02,2,Riana Taylor,Pflugerville,95.8,136.08,68.04,124.74,328.85,Single-ply,SBD,F
Girls,100.02,3,Cate Julius,Kyle Lehman,97.98,142.88,54.43,106.59,303.91,Single-ply,SBD,F
Girls,100.02,4,Lauryn Robledo,Geronimo Navarro,91.63,104.33,65.77,113.4,283.5,Single-ply,SBD,F
Girls,100.02,5,Ariana Alderete,Taylor,93.89,117.93,61.23,104.33,283.5,Single-ply,SBD,F
Girls,100.02,6,Frida Lazcano,Kyle Lehman,97.98,104.33,54.43,102.06,260.82,Single-ply,SBD,F
Girls,100.02,7,Savannah Urrutia,Karnes City,99.43,111.13,45.36,97.52,254.01,Single-ply,SBD,F
Girls,100.02,8,Joanna Cantu,Pflugerville,97.52,74.84,45.36,79.38,199.58,Single-ply,SBD,F
Girls,100.02,9,Aubry Jackson,Hays Johnson,90.99,74.84,38.56,77.11,190.51,Single-ply,SBD,F
Girls,100.02,DQ,Riana Reyes,Lockhart,98.52,65.77,,88.45,,Single-ply,SBD,F
Girls,117.71,1,Julla Rios,Luling,102.15,117.93,61.23,136.08,315.25,Single-ply,SBD,F
Girls,117.71,2,Victoria Escobedo,Luling,101.33,113.4,61.23,129.27,303.91,Single-ply,SBD,F
Girls,117.71,3,Analise,Taylor,116.3,104.33,65.77,113.4,283.5,Single-ply,SBD,F
Girls,117.71,4,Yadira Torres,Luling,103.15,97.52,49.9,120.2,267.62,Single-ply,SBD,F
Girls,117.71,5,Elvia Aguillion,Lockhart,107.68,79.38,61.23,102.06,242.67,Single-ply,SBD,F
Girls,117.71+,1,Adecela Martinez,Lockhart,124.74,133.81,68.04,124.74,326.59,Single-ply,SBD,F
Girls,117.71+,2,Merissa Marley,Lockhart,125.1,65.77,43.09,102.06,210.92,Single-ply,SBD,F
Girls,,NS,Jucianna Cavindo,Lockhart,,,,,,Single-ply,SBD,F
Girls,,NS,Ximena Castillo,Kyle Lehman,,,,,,Single-ply,SBD,F
Girls,,NS,Aaliyah Shanks,Kyle Lehman,,,,,,Single-ply,SBD,F
Girls,,NS,Olivia Zamora,Luling,,,,,,Single-ply,SBD,F
Girls,,NS,Brook Guillen,Luling,,,,,,Single-ply,SBD,F
Girls,,NS,Denise Rodriguez,Pflugerville Connally,,,,,,Single-ply,SBD,F
Girls,,NS,Marisa Lopez,Pflugerville Connally,,,,,,Single-ply,SBD,F
Girls,,NS,Hannah Semlinger,Geronimo Navarro,,,,,,Single-ply,SBD,F
Girls,,NS,Denae Garcia,Karnes City,,,,,,Single-ply,SBD,F
Girls,,NS,Lee Ramirez,Karnes City,,,,,,Single-ply,SBD,F
Girls,,NS,Shelby Sczepanik,Karnes City,,,,,,Single-ply,SBD,F
Girls,,NS,Alexa Carbajal,Karnes City,,,,,,Single-ply,SBD,F
Girls,,NS,Trinity Yochanm,Pflugerville,,,,,,Single-ply,SBD,F
Girls,,NS,Aliana Saldiuar,Pflugerville,,,,,,Single-ply,SBD,F
