Name,Team,BodyweightKg,WeightClassKg,Squat1Kg,Squat2Kg,Squat3Kg,Best3SquatKg,Bench1Kg,Bench2Kg,Bench3Kg,Best3BenchKg,Deadlift1Kg,Deadlift2Kg,Deadlift3Kg,Best3DeadliftKg,TotalKg,Equipment,Event,Sex,Place,Division
Dean Murray Barton,NW,57.1,59,130,-137.5,-137.5,130,72.5,77.5,-80,77.5,162.5,172.5,177.5,177.5,385,Raw,SBD,M,1,M-C-Open
David Gray,WM,65.2,66,177.5,187.5,195,195,127.5,132.5,136,136,225,242.5,250,250,581,Raw,SBD,M,1,M-C-Open
Andrew Daws,SE,64.4,66,175,185,192.5,192.5,117.5,127.5,132.5,132.5,185,200,207.5,207.5,532.5,Raw,SBD,M,2,M-C-Open
Richard Gallagher,YNE,65,66,160,167.5,-175,167.5,-110,112.5,120,120,205,217.5,227.5,227.5,515,Raw,SBD,M,3,M-C-Open
Paul Cooper,YNE,73.6,74,190,200,205,205,155,162.5,165,165,270,280,-290,280,650,Raw,SBD,M,1,M-C-Open
Luke Rogers #1,WM,73.6,74,220,230,-232.5,230,120,-125,-125,120,250,262.5,265,265,615,Raw,SBD,M,2,M-C-Open
Steven Tyers,SW,73.8,74,190,200,210,210,130,137.5,142.5,142.5,230,252.5,262.5,262.5,615,Raw,SBD,M,3,M-C-Open
Tim Baker,SW,72.5,74,180,190,195,195,125,135,-137.5,135,250,260,-265,260,590,Raw,SBD,M,4,M-C-Open
Scott Bradwell,YNE,73.5,74,185,195,-200,195,137.5,147.5,-150,147.5,215,230,-247.5,230,572.5,Raw,SBD,M,5,M-C-Open
Alexander McFarlane,NM,68.9,74,190,-205,205,205,105,-120,-120,105,230,-250,255,255,565,Raw,SBD,M,6,M-C-Open
Chis Lindley,YNE,73.5,74,177.5,185,192.5,192.5,120,-125,-125,120,215,235,-240,235,547.5,Raw,SBD,M,7,M-C-Open
Luke Hinton,WM,72.4,74,170,180,185,185,127.5,-132.5,-132.5,127.5,220,230,-235,230,542.5,Raw,SBD,M,8,M-C-Open
Daniel Smith,SM,73.9,74,195,202.5,-207.5,202.5,-125,-125,125,125,200,-207.5,,200,527.5,Raw,SBD,M,9,M-C-Open
Chris Kershaw,YNE,73.1,74,-200,200,-210,200,130,135,-137.5,135,180,190,-200,190,525,Raw,SBD,M,10,M-C-Open
Sean Kilbride,YNE,72.3,74,170,175,180,180,130,135,137.5,137.5,190,200,-205,200,517.5,Raw,SBD,M,11,M-C-Open
Dominic Crane,EM,72.9,74,175,185,-190,185,110,120,-125,120,200,-215,-215,200,505,Raw,SBD,M,12,M-C-Open
Dan Massarella,SW,73.4,74,160,172.5,177.5,177.5,117.5,-122.5,125,125,185,195,202.5,202.5,505,Raw,SBD,M,13,M-C-Open
Hari Singh Cheema,WM,74,74,160,175,185,185,102.5,107.5,-112.5,107.5,180,190,200,200,492.5,Raw,SBD,M,14,M-C-Open
Matthew Golding,SW,72.5,74,170,180,-190,180,97.5,102.5,-105,102.5,190,200,-210,200,482.5,Raw,SBD,M,15,M-C-Open
João Curro,GL,72.3,74,150,157.5,-162.5,157.5,110,117.5,-120,117.5,175,185,,185,460,Raw,SBD,M,16,M-C-Open
Sam Tomkins,SE,72.8,74,135,-145,145,145,102.5,107.5,112.5,112.5,180,195,-215,195,452.5,Raw,SBD,M,17,M-C-Open
Paul Campbell,NM,73.7,74,175,185,-190,185,-140,-140,,,,,,,,Raw,SBD,M,DQ,M-C-Open
Owen Hubbard,Wales,81.8,83,250,265,-272.5,265,190,-200,200,200,255,270,-282.5,270,735,Raw,SBD,M,1,M-C-Open
Ebeneza Osinowo,GL,82.5,83,225,235,-242.5,235,140,150,-155,150,282.5,291,-300,291,676,Raw,SBD,M,2,M-C-Open
Robert Rodgers,GL,82.3,83,225,235,-242.5,235,142.5,150,155,155,250,265,270,270,660,Raw,SBD,M,3,M-C-Open
Daniel Bedford,YNE,82.1,83,220,232.5,235,235,145,-152.5,-152.5,145,255,275,-282.5,275,655,Raw,SBD,M,4,M-C-Open
Francis Barrett #2,Wales,82.5,83,215,225,-230,225,160,-165,-165,160,235,242.5,252.5,252.5,637.5,Raw,SBD,M,5,M-C-Open
Peter Hornyak,SE,81.9,83,207.5,215,-222.5,215,160,-165,-165,160,240,247.5,255,255,630,Raw,SBD,M,6,M-C-Open
Ben Croft,YNE,82.5,83,212.5,-222.5,-222.5,212.5,140,-145,145,145,242.5,262.5,267.5,267.5,625,Raw,SBD,M,7,M-C-Open
Ben Bower,YNE,82.6,83,-200,-210,210,210,155,-162.5,162.5,162.5,225,242.5,-245,242.5,615,Raw,SBD,M,8,M-C-Open
Alistair Cannings,SW,82.5,83,210,220,-227.5,220,145,152.5,157.5,157.5,225,-235,,225,602.5,Raw,SBD,M,9,M-C-Open
Ed Karim,GL,81.1,83,180,195,205,205,160,170,-175,170,200,215,-225,215,590,Raw,SBD,M,10,M-C-Open
Lee Betteridge,EM,81.7,83,180,200,205,205,130,-140,140,140,225,245,-255,245,590,Raw,SBD,M,11,M-C-Open
Jimmy Doyle,NW,81.9,83,195,205,-212.5,205,130,135,140,140,235,245,-255,245,590,Raw,SBD,M,12,M-C-Open
Tariq Tabiner,YNE,81.2,83,180,190,200,200,120,130,-137.5,130,220,230,242.5,242.5,572.5,Raw,SBD,M,13,M-C-Open
Asad Bhatti,SM,82.1,83,190,-200,-200,190,117.5,120,122.5,122.5,230,245,252.5,252.5,565,Raw,SBD,M,14,M-C-Open
Alan Joseph,GL,82.7,83,172.5,182.5,190,190,117.5,-122.5,122.5,122.5,220,235,247.5,247.5,560,Raw,SBD,M,15,M-C-Open
Yusef El-Sobky,YNE,77.7,83,175,185,192.5,192.5,130,135,140,140,215,225,-235,225,557.5,Raw,SBD,M,16,M-C-Open
Alister Eustace,Wales,81,83,180,195,-207.5,195,115,120,,120,220,240,-250,240,555,Raw,SBD,M,17,M-C-Open
Matt Zollo,SM,82.6,83,160,175,185,185,110,117.5,-122.5,117.5,220,240,245,245,547.5,Raw,SBD,M,18,M-C-Open
Kevin Yeung,SW,82.4,83,180,-190,-190,180,117.5,127.5,132.5,132.5,205,215,222.5,222.5,535,Raw,SBD,M,19,M-C-Open
Robert Beattie,YNE,81.8,83,175,185,192.5,192.5,110,117.5,-122.5,117.5,195,205,220,220,530,Raw,SBD,M,20,M-C-Open
John Corcoran #1,GL,80.5,83,182.5,192.5,200,200,107.5,110,115,115,210,-227.5,-227.5,210,525,Raw,SBD,M,21,M-C-Open
Christopher McKenzie,EM,82.3,83,190,-200,-200,190,110,-115,-115,110,215,220,-225,220,520,Raw,SBD,M,22,M-C-Open
Tom Rowell,EM,81.7,83,210,217.5,-222.5,217.5,120,127.5,-130,127.5,-255,-255,-255,,,Raw,SBD,M,DQ,M-C-Open
Sam Reeves,SM,82.4,83,-175,-182.5,-182.5,,,,,,,,,,,Raw,SBD,M,DQ,M-C-Open
Pierre Shillingford,GL,91.4,93,232.5,242.5,250,250,160,170,175,175,277.5,292.5,-302.5,292.5,717.5,Raw,SBD,M,1,M-C-Open
Iain Kendrick,SM,92.1,93,242.5,252.5,260,260,142.5,152.5,-160,152.5,262.5,270,275,275,687.5,Raw,SBD,M,2,M-C-Open
Max Simpson,Wales,90.3,93,220,230,240,240,145,150,155,155,-260,260,272.5,272.5,667.5,Raw,SBD,M,3,M-C-Open
Carl Robinson,NW,91.1,93,225,232.5,-237.5,232.5,140,147.5,152.5,152.5,260,277.5,-285,277.5,662.5,Raw,SBD,M,4,M-C-Open
Mateusz Boroń,WM,91.3,93,200,210,220,220,-130,135,-145,135,280,300,-305,300,655,Raw,SBD,M,5,M-C-Open
Ronald Karim,GL,91.8,93,220,230,240,240,150,160,165,165,245,-255,-255,245,650,Raw,SBD,M,6,M-C-Open
Alex Tosh,SW,90.4,93,195,205,215,215,150,160,165,165,235,255,265,265,645,Raw,SBD,M,7,M-C-Open
Jonathan Watson,YNE,91.3,93,200,210,-220,210,135,140,-145,140,255,275,292.5,292.5,642.5,Raw,SBD,M,8,M-C-Open
Diego Martinez-Rodney,GL,91.4,93,220,-230,230,230,135,140,142.5,142.5,250,265,-270,265,637.5,Raw,SBD,M,9,M-C-Open
Jason Coultman,GL,90.5,93,215,225,235,235,120,130,140,140,235,247.5,260,260,635,Raw,SBD,M,10,M-C-Open
Carlin Jones,SW,90.2,93,190,200,205,205,150,155,-160,155,240,260,,260,620,Raw,SBD,M,11,M-C-Open
Dan Watkins,SM,90.8,93,190,200,-205,200,170,175,180,180,230,240,-245,240,620,Raw,SBD,M,12,M-C-Open
Gareth Griffiths,SE,91,93,200,-210,-210,200,-140,-140,140,140,265,275,-280,275,615,Raw,SBD,M,13,M-C-Open
Richard Perfield,SE,86.7,93,185,205,-212.5,205,150,162.5,165,165,220,240,-250,240,610,Raw,SBD,M,14,M-C-Open
Derek Hussey,EM,90.7,93,200,215,225,225,140,150,-157.5,150,220,235,-245,235,610,Raw,SBD,M,15,M-C-Open
Jonathan Wardell,Scot,90.8,93,210,225,-240,225,90,115,130,130,230,250,-265,250,605,Raw,SBD,M,16,M-C-Open
Michael Smith #8,Wales,91.6,93,210,232.5,-237.5,232.5,125,132.5,,132.5,230,-255,,230,595,Raw,SBD,M,17,M-C-Open
Chris Baldwin,YNE,91.9,93,200,-210,-210,200,135,140,-145,140,235,242.5,250,250,590,Raw,SBD,M,18,M-C-Open
Danny Lee,SW,88.8,93,190,200,205,205,-125,-125,125,125,220,235,250,250,580,Raw,SBD,M,19,M-C-Open
Sean McPhillips,YNE,91.6,93,182.5,192.5,-200,192.5,125,130,-135,130,245,255,-260,255,577.5,Raw,SBD,M,20,M-C-Open
William Brooks,SW,91.6,93,170,180,185,185,135,140,-145,140,240,250,-260,250,575,Raw,SBD,M,21,M-C-Open
Jason Hunton,YNE,91.4,93,185,195,202.5,202.5,127.5,132.5,137.5,137.5,205,220,230,230,570,Raw,SBD,M,22,M-C-Open
Jamie Price,WM,91.6,93,195,207.5,215,215,107.5,112.5,117.5,117.5,215,227.5,237.5,237.5,570,Raw,SBD,M,23,M-C-Open
Owen Morgan,Wales,88.7,93,175,-185,185,185,130,-135,135,135,230,245,-255,245,565,Raw,SBD,M,24,M-C-Open
Ivan Otim,GL,91.3,93,175,-185,185,185,110,115,-120,115,240,255,265,265,565,Raw,SBD,M,25,M-C-Open
Jacob Parry,GL,89.2,93,175,190,-195,190,125,132.5,-137.5,132.5,240,-255,-255,240,562.5,Raw,SBD,M,26,M-C-Open
Sam Watkins,SM,90.2,93,195,210,-217.5,210,125,135,-140,135,210,217.5,-222.5,217.5,562.5,Raw,SBD,M,27,M-C-Open
Richard Thimbleby,YNE,92.2,93,185,202.5,-205,202.5,122.5,127.5,130,130,215,230,-240,230,562.5,Raw,SBD,M,28,M-C-Open
David Thomas,GL,89.9,93,185,195,-205,195,100,107.5,-112.5,107.5,230,242.5,-257.5,242.5,545,Raw,SBD,M,29,M-C-Open
Stephen Manuel,NW,104.4,105,285,305,-315,305,180,192.5,197.5,197.5,290,-307.5,307.5,307.5,810,Raw,SBD,M,1,M-C-Open
Robert Rees,GL,104.9,105,250,265,272.5,272.5,170,180,185,185,300,315,325,325,782.5,Raw,SBD,M,2,M-C-Open
Harvey Robinson,Wales,101.9,105,250,265,-270,265,155,165,170,170,290,305,310,310,745,Raw,SBD,M,3,M-C-Open
Russ Kirby,SE,104.6,105,255,270,275,275,170,180,182.5,182.5,260,272.5,-280,272.5,730,Raw,SBD,M,4,M-C-Open
Mark Gregory,NM,101.2,105,220,240,-250,240,170,180,-185,180,260,-280,280,280,700,Raw,SBD,M,5,M-C-Open
Hugo Duarte,GL,103.9,105,240,255,260,260,140,150,-152.5,150,260,280,-285,280,690,Raw,SBD,M,6,M-C-Open
Matt Morsia,SE,104.7,105,235,252.5,-257.5,252.5,155,162.5,165,165,245,262.5,-272.5,262.5,680,Raw,SBD,M,7,M-C-Open
Reece Smith,GL,104.1,105,225,-240,240,240,157.5,-162.5,-162.5,157.5,255,272.5,-275,272.5,670,Raw,SBD,M,8,M-C-Open
Michael Goodwin,SE,98.8,105,220,230,-240,230,155,165,-175,165,255,265,-275,265,660,Raw,SBD,M,9,M-C-Open
Andrew Forbes,YNE,103.9,105,225,235,-245,235,140,-147.5,-147.5,140,230,240,245,245,620,Raw,SBD,M,10,M-C-Open
Tom Slater,YNE,104.3,105,200,210,-217.5,210,130,135,137.5,137.5,250,265,-277.5,265,612.5,Raw,SBD,M,11,M-C-Open
Richard Patman,EM,95.7,105,210,220,230,230,135,145,-150,145,200,220,-240,220,595,Raw,SBD,M,12,M-C-Open
Jason Ennis,NW,104.9,105,190,200,-210,200,135,140,145,145,220,230,235,235,580,Raw,SBD,M,13,M-C-Open
Edward Baker,WM,97.8,105,200,-210,-220,200,120,125,-127.5,125,230,245,-255,245,570,Raw,SBD,M,14,M-C-Open
Tony Cliffe,EM,119.1,120,305,325,332.5,332.5,205,217.5,225,225,315,330,-345,330,887.5,Raw,SBD,M,1,M-C-Open
Andy Huchins,EM,119.1,120,250,265,275,275,170,177.5,-180,177.5,280,290,-295,290,742.5,Raw,SBD,M,2,M-C-Open
Andrew Rodney,EM,119.5,120,230,260,275,275,162.5,-175.5,-175.5,162.5,280,300,,300,737.5,Raw,SBD,M,3,M-C-Open
Daniel Lindsell,EM,118.1,120,210,222.5,227.5,227.5,172.5,182.5,-187.5,182.5,270,290,-300,290,700,Raw,SBD,M,4,M-C-Open
Thomas Vazson,EM,116.3,120,230,245,260,260,140,150,160,160,250,265,-270,265,685,Raw,SBD,M,5,M-C-Open
Christopher Farrow,NM,112.7,120,205,222.5,230,230,137.5,145,150,150,250,267.5,275,275,655,Raw,SBD,M,6,M-C-Open
Christopher Corbin,SE,119.4,120,215,227.5,235,235,137.5,145,150,150,235,250,265,265,650,Raw,SBD,M,7,M-C-Open
Jon Askey,WM,119.7,120,215,230,237.5,237.5,140,145,147.5,147.5,250,265,-270,265,650,Raw,SBD,M,8,M-C-Open
Rhett Lloyd Milton,EM,111.8,120,210,220,-230,220,155,160,165,165,260,-270,-270,260,645,Raw,SBD,M,9,M-C-Open
Tom Weavers,EM,119.9,120,205,220,225,225,145,155,165,165,235,245,-257.5,245,635,Raw,SBD,M,10,M-C-Open
Louis Phelps,SW,116.1,120,210,220,-225,220,130,135,140,140,250,257.5,-260,257.5,617.5,Raw,SBD,M,11,M-C-Open
Michael Jones #1,Wales,163,120+,290,-305,,290,190,205,210,210,300,315,,315,815,Raw,SBD,M,1,M-C-Open
Matthew Pearce,WM,153.1,120+,290,310,322.5,322.5,180,190,200,200,260,280,-292.5,280,802.5,Raw,SBD,M,2,M-C-Open
Aaron Thompson,NM,139.9,120+,280,300,-305,300,165,172.5,-177.5,172.5,270,300,-317.5,300,772.5,Raw,SBD,M,3,M-C-Open
Christopher Hartwig,EM,132.2,120+,-250,250,260,260,170,175,180,180,285,295,-305,295,735,Raw,SBD,M,4,M-C-Open
Mitchal Flowers,SW,142.6,120+,245,255,265,265,170,-175,,170,280,290,300,300,735,Raw,SBD,M,5,M-C-Open
Calum Nicholls,SE,133.2,120+,220,230,240,240,180,-185,-185,180,280,-290,,280,700,Raw,SBD,M,6,M-C-Open
Jonathan Challinor,WM,131.1,120+,200,220,235,235,130,140,145,145,235,255,-272.5,255,635,Raw,SBD,M,7,M-C-Open
