Place,Name,BirthYear,BodyweightKg,Team,Best3SquatKg,Best3BenchKg,Best3DeadliftKg,TotalKg,Sex,WeightClassKg,Event,Division,Equipment
1,Erika Uhlig,1962,46.4,TV Kempten,72.5,50,97.5,220,F,48,SBD,Open,Single-ply
1,Kerstin Hirsch,1966,51.6,ASC Nürnbg.Süd,132.5,72.5,160,365,F,52,SBD,Open,Single-ply
1,Sandra Szangolis,1970,55.9,KSV Fi.Witten,152.5,80,180.5,412.5,F,56,SBD,Open,Single-ply
2,Katrin Mordewicz,1972,55.2,SG Fort.Eibau,135,77.5,145,357.5,F,56,SBD,Open,Single-ply
1,Michaela Näfe,1974,59,Pol.SV Chemnitz,137.5,77.5,145,360,F,60,SBD,Open,Single-ply
2,Martin Helmbrecht,1963,58.9,AC Lünen 88,135,82.5,140,357.5,F,60,SBD,Open,Single-ply
1,Daniela Sell,1970,67.4,AC Marburg 1888,145,90,175,410,F,67.5,SBD,Open,Single-ply
2,Jeanett Buschmann,1972,60.1,SV Auerbach,125,70,130,325,F,67.5,SBD,Open,Single-ply
1,Eva-M Bachmaier,1970,67.6,Bav.Landshut,137.5,105,190,432.5,F,75,SBD,Open,Single-ply
2,Jane Mittelstaedt,1971,72.3,SG Röcken,150,80,155,385,F,75,SBD,Open,Single-ply
3,Beate Schönke,1964,74.2,GFC Artern,140,85,155,380,F,75,SBD,Open,Single-ply
1,Anke Nordwig,1978,81.7,FCL Rüsselsheim,140,77.5,125,342.5,F,82.5,SBD,Open,Single-ply
1,Konni Gosmann,1958,85.5,KSV Langen,132.5,65,127.5,325,F,90,SBD,Open,Single-ply
3,Chantal Von Kessel,1972,66.2,KSV Fi.Witten,82.5,37.5,90,210,F,67.5,SBD,Open,Single-ply
3,Selma Kiefer,1971,55.6,KSV Fi.Witten,85,45,75,205,F,56,SBD,Open,Single-ply
3,Kerstin Bengel,1970,59.4,HBB KdKVereingng,130,70,145,345,F,60,SBD,Open,Single-ply
4,Elke Dogruöz,1974,72.3,KSV Bochum,125,62.5,137.5,325,F,75,SBD,Open,Single-ply
1,Christian Klein,1970,51.5,Pow.Gym Wiesbaden,192.5,135,195,522.5,M,52,SBD,Open,Single-ply
1,Andreas Röhr,1969,67.4,TSV Tangermünde,215,167.5,240,622.5,M,67.5,SBD,Open,Single-ply
2,Matthias Riesch,1973,66.4,PLC Gerlingen,210,100,230,540,M,67.5,SBD,Open,Single-ply
3,Mike Huschka,1973,67.4,SSV Samswegen,220,130,190,540,M,67.5,SBD,Open,Single-ply
DQ,Walter Schleich,1939,65.7,AC Marburg 1888,,,,,M,67.5,SBD,Open,Single-ply
1,Mario Schnurr,1966,74.9,AC Oppenau,230,142.5,285,657.5,M,75,SBD,Open,Single-ply
2,Mike Nikolaizig,1965,72.2,SV Grieben,245,175,235,655,M,75,SBD,Open,Single-ply
3,Thomas Marhoffer,1967,73.9,Geringswalder KV,230,160,265,655,M,75,SBD,Open,Single-ply
4,Wolfgang Bzdock,1960,73,Pol.SV Chemnitz,245,160,235,640,M,75,SBD,Open,Single-ply
1,Dirk Surma,1967,82.3,KSV Fi.Witten,280,177.5,252.5,710,M,82.5,SBD,Open,Single-ply
2,Andreas Schulz,1974,81.8,AC Lauchhammer,247.5,170,252.5,670,M,82.5,SBD,Open,Single-ply
4,Steffe Leihbecher,1971,81.3,KSV Langen,255,140,252.5,647.5,M,82.5,SBD,Open,Single-ply
6,Ingo Gawoll,1967,81.9,KuF Hoyerswerda,230,170,242.5,642.5,M,82.5,SBD,Open,Single-ply
7,Heiko Krüger,1971,82.4,FCL Rüsselsheim,240,160,235,635,M,82.5,SBD,Open,Single-ply
DQ,Steffen Bedrich,1973,81.6,Pow.Gym Wiesbaden,,,,,M,82.5,SBD,Open,Single-ply
1,Frank Hausburg,1971,89.6,AC Lauchhammer,300,170,300,770,M,90,SBD,Open,Single-ply
2,Michael Seibel,1977,89.9,AV Groß Zimmern,290,190,270,750,M,90,SBD,Open,Single-ply
3,Mari Kurzendörfer,1974,89.7,KFV Döbeln,240,195,265,700,M,90,SBD,Open,Single-ply
4,Andreas Fenzel,1961,90,SG Röcken,235,137.5,280,652.5,M,90,SBD,Open,Single-ply
5,Björn Friedrich,1968,85,Takezo Berlin,240,170,240,650,M,90,SBD,Open,Single-ply
6,Steffen Marche,1963,84.6,SG Hal.Neustadt,250,157.5,230,637.5,M,90,SBD,Open,Single-ply
DQ,Thomas Mühlberg,1972,86.5,KuF Hoyerswerda,,,,,M,90,SBD,Open,Single-ply
1,Reiko Kruse,1972,99.9,Kröpeliner SV,322.5,205,295,822.5,M,100,SBD,Open,Single-ply
2,Dominik Tanpinard,1967,97.8,PSC Schönau-MA,285,205,295,785,M,100,SBD,Open,Single-ply
3,Rudolf Weiß,1972,97.8,PSC Schönau-MA,270,180,285,735,M,100,SBD,Open,Single-ply
4,Jörg Schmid,1967,98.8,FC Ebenhofen,305,170,230,705,M,100,SBD,Open,Single-ply
5,Josef Grießl,1967,96.6,STHV Ohlstadt,265,157.5,280,702.5,M,100,SBD,Open,Single-ply
6,Alexander Stotz,1974,100,AC Oppenau,255,160,275,690,M,100,SBD,Open,Single-ply
DQ,Martin Verhoff,1963,97.7,KSV Eiserfeld,,,,,M,100,SBD,Open,Single-ply
1,Thomas Roch,1964,108.7,SV Westerholt,280,235,287.5,802.5,M,110,SBD,Open,Single-ply
2,Peter Liedtke,1963,108.7,AC Lünen 88,280,205,270,755,M,110,SBD,Open,Single-ply
3,Peter Semmler,1960,103.7,AC Sie.Darmstadt,275,167.5,280,722.5,M,110,SBD,Open,Single-ply
4,Jörg Tiedtke,1966,108,KSV Fürstenwalde,270,185,252.5,707.5,M,110,SBD,Open,Single-ply
5,Thomas Guhde,1962,105.8,ACH Berlin,275,155,270,700,M,110,SBD,Open,Single-ply
6,Udo Krumbholz,1961,108.6,USV Dresden,240,200,250,690,M,110,SBD,Open,Single-ply
DQ,Jörg Herchenhein,1962,109.9,Pow.Gym Wiesbaden,,,,,M,110,SBD,Open,Single-ply
1,Thorsten Hinz,1974,114.2,Pow.Gym Wiesbaden,290,205,320,815,M,125,SBD,Open,Single-ply
2,Helmu Markantelli,1964,122.3,FC Ebenhofen,325,205,285,815,M,125,SBD,Open,Single-ply
3,Wolfgang Zimmermann,1968,111,KSCI Amberg,290,205,285,780,M,125,SBD,Open,Single-ply
1,Holger Kuttroff,1969,130.7,KSC Leintal,370,235,300,905,M,125+,SBD,Open,Single-ply
2,Aribert Forster,1970,128.7,Bav.Landshut,335,215,332.5,882.5,M,125+,SBD,Open,Single-ply
3,Eberhard Schwanke,1953,131.8,Bav.Landshut,335,245,300,880,M,125+,SBD,Open,Single-ply
4,Achim Clausen,1960,143.2,Pow.Gym Wiesbaden,320,220,325,865,M,125+,SBD,Open,Single-ply
5,Thorsten Krug,1967,143.2,AC Marburg 1888,300,220,270,790,M,125+,SBD,Open,Single-ply
DQ,Thomas Kiefer,1962,67,KSV Fi.Witten,,,,,M,67.5,SBD,Open,Single-ply
5,Frank Gabriel,1962,74.5,KSV Fi.Witten,222.5,145,210,577.5,M,75,SBD,Open,Single-ply
6,Maik Kleidt,1968,133.9,Herrnburger AV,270,195,265,730,M,125+,SBD,Open,Single-ply
DQ,Uwe Krah,1964,129.3,AC Marburg 1888,315,215,,,M,125+,SBD,Open,Single-ply
4,Rudolf Küster,1955,110.4,Phönix Kassel,305,115,300,720,M,125,SBD,Open,Single-ply
7,Thomas Klee,1970,96.8,KSV Fi.Witten,245,175,220,640,M,100,SBD,Open,Single-ply
7,Axel Hüter,1971,88.9,KSC Kassel,240,162.5,235,637.5,M,90,SBD,Open,Single-ply
3,Timo Beier,1970,81.8,KFV Döbeln,250,150,267.5,667.5,M,82.5,SBD,Open,Single-ply
5,Steffen Spörl,1974,79.1,PSV Lobenstein,245,155,242.5,642.5,M,82.5,SBD,Open,Single-ply
8,Tor Breitengraser,1961,80.6,SG Hal.Neustadt,190,150,240,580,M,82.5,SBD,Open,Single-ply
9,Mario Harnisch,1962,77.5,SG Röcken,210,135,230,575,M,82.5,SBD,Open,Single-ply
DQ,Dietmar Daron,1959,72.8,VFB Marl-Huels,,,,,M,75,SBD,Open,Single-ply
DQ,Antonio DiMarco,1973,74.7,AV Groß Zimmern,,,,,M,75,SBD,Open,Single-ply
