Place,Name,Sex,Event,Division,WeightClassKg,Equipment,BirthYear,State,BodyweightKg,Bench1Kg,Bench2Kg,Bench3Kg,Best3BenchKg,TotalKg,Age,BirthDate
DD,Joe Hutmacher,M,B,MR-M1a,120+,Raw,1969,SD,183.86,185,200,-217.5,200.0,,,
1,Pete Lien,M,B,MR-M3a,105,Raw,1958,SD,103.9,137.5,147.5,152.5,152.5,152.5,,
2,Arlyn Dyce,M,B,MR-M3a,105,Raw,1956,SD,102.77,102.5,110,-115,110.0,110,,
1,Casey Peterson,M,B,MR-M3b,105,Raw,1953,SD,97.7,112.5,127.5,-140,127.5,127.5,,
1,Sam Kenton,M,B,MR-O,105,Raw,1979,SD,102.72,-125,125,-127.5,125.0,125,,
