Division,WeightClassKg,Place,Name,Team,BodyweightKg,Best3SquatKg,Best3BenchKg,Best3DeadliftKg,TotalKg,Equipment,Event,Sex
Girls,44.23,1,Brayleigh McGill,Panhandle,44,90.72,47.63,113.4,251.74,Single-ply,SBD,F
Girls,44.23,2,Aubrey Jaramillo,Clarendon,38.37,68.04,36.29,72.57,176.9,Single-ply,SBD,F
Girls,47.85,1,Camryn Kelso,Vega,46.18,56.7,29.48,70.31,156.49,Single-ply,SBD,F
Girls,51.94,1,Jolie Maples,Amarillo Highland Park,47.9,45.36,31.75,74.84,151.95,Single-ply,SBD,F
Girls,51.94,DQ,Madilyn Ellerbrook,Childress,50.17,52.16,,,,Single-ply,SBD,F
Girls,56.02,1,Evyn Winborne,Panhandle,52.62,95.25,47.63,99.79,242.67,Single-ply,SBD,F
Girls,56.02,2,Jadyn Coffee,Panhandle,54.88,90.72,43.09,99.79,233.6,Single-ply,SBD,F
Girls,56.02,3,Sharon Mackenzie,Amarillo Highland Park,52.8,72.57,29.48,97.52,199.58,Single-ply,SBD,F
Girls,56.02,4,Janessa Garcia,Friona,55.97,54.43,34.02,90.72,179.17,Single-ply,SBD,F
Girls,56.02,NS,Joselin Barraza,Friona,,,,,,Single-ply,SBD,F
Girls,67.36,1,Madilyn Cathey,Panhandle,67.13,133.81,56.7,124.74,315.25,Single-ply,SBD,F
Girls,67.36,DQ,Destiny Amaya,Amarillo Highland Park,60.78,,,,,Single-ply,SBD,F
Girls,67.36,DQ,Mahala Stembridge,Borger,60.69,65.77,,,,Single-ply,SBD,F
Girls,67.36,NS,Kiana Posada,Amarillo Highland Park,,,,,,Single-ply,SBD,F
Girls,75.07,1,Lani Sumrall,Childress,70.49,90.72,49.9,102.06,242.67,Single-ply,SBD,F
Girls,75.07,2,Zowie Watt,Vega,73.03,70.31,36.29,77.11,183.7,Single-ply,SBD,F
Girls,82.33,1,Jacquelyn Olivas,Vega,80.92,136.08,88.45,136.08,360.61,Single-ply,SBD,F
Girls,82.33,2,Mackenzie Pritt,Childress,80.65,127.01,70.31,131.54,328.85,Single-ply,SBD,F
Girls,82.33,3,Juliet Gonzales,Amarillo Highland Park,79.92,111.13,40.82,136.08,288.03,Single-ply,SBD,F
Girls,82.33,4,Juanita Garcia,Friona,79.38,108.86,47.63,120.2,276.69,Single-ply,SBD,F
Girls,82.33,5,Hazel Guerrero,Childress,79.92,106.59,65.77,102.06,274.42,Single-ply,SBD,F
Girls,82.33,6,Celia Mullen,Memphis,81.47,74.84,56.7,79.38,210.92,Single-ply,SBD,F
Girls,82.33,7,Harleen Sandhu,Vega,77.56,61.23,36.29,74.84,172.37,Single-ply,SBD,F
Girls,90.04,1,Kaidie Hackler,Childress,83.82,102.06,61.23,120.2,283.5,Single-ply,SBD,F
Girls,90.04,2,Ahtziri Soltero,Friona,87.91,113.4,38.56,88.45,240.4,Single-ply,SBD,F
Girls,90.04,3,Katy Rojas,Friona,89.9,88.45,47.63,79.38,215.46,Single-ply,SBD,F
Girls,90.04,4,Diana Felix,Amarillo Highland Park,87.82,70.31,27.22,72.57,170.1,Single-ply,SBD,F
Girls,100.02,1,Taylor McCarty,Childress,99.43,172.37,97.52,165.56,435.45,Single-ply,SBD,F
Girls,100.02,2,Torya Chico,Friona,97.98,113.4,43.09,104.33,260.82,Single-ply,SBD,F
Girls,100.02,3,Adriana Rodriquez,Hart,99.79,74.84,38.56,108.86,222.26,Single-ply,SBD,F
Girls,100.02,4,Raylee Guerra,Memphis,99.16,79.38,34.02,83.91,197.31,Single-ply,SBD,F
Girls,100.02,5,Mikaela Mercado,Amarillo Highland Park,94.35,61.23,36.29,79.38,176.9,Single-ply,SBD,F
Girls,117.71,NS,Winter Back,Borger,,,,,,Single-ply,SBD,F
Girls,117.71,NS,Karlee Osborn,Friona,,,,,,Single-ply,SBD,F
Girls,117.71+,1,Jamee Tate,Memphis,182.62,81.65,79.38,124.74,285.76,Single-ply,SBD,F
