Name,Division,Equipment,Sex,WeightClassKg,BodyweightKg,State,Best3SquatKg,Best3BenchKg,Best3DeadliftKg,TotalKg,Bench4Kg,Deadlift4Kg,Event,Place
Ryan Greer,Pre-Teen,Wraps,M,44,41.5,TN,61.23,49.9,90.72,201.85,,,SBD,1
Trey Hunter,Teenage 16-17,Wraps,M,67.5,65.09,TN,136.08,79.38,165.56,381.02,,,SBD,1
Seth Maddaloni,Teenage 16-17,Wraps,M,110,105.01,TN,151.95,106.59,204.12,462.66,,,SBD,1
Jarrett Coryall,Teenage 18-19,Wraps,M,82.5,80.74,TN,204.12,165.56,192.78,562.45,170.1,,SBD,1
Dustin Lynn,Teenage 18-19,Wraps,M,90,89.36,TN,195.04,120.2,240.4,555.65,,249.48,SBD,1
Lisa Ashworth,Open,Wraps,F,60,59.87,TN,79.38,40.82,129.27,249.48,,,SBD,1
Genie Deckard,Open,Wraps,F,67.5,62.6,TN,108.86,58.97,120.2,288.03,,,SBD,1
Talia Van Doran,Open,Wraps,F,67.5,65.54,TN,86.18,40.82,127.01,254.01,,,SBD,2
Robyn Blankenship,Open,Wraps,F,75,74.84,VA,217.72,129.27,197.31,544.31,,,SBD,1
Lisa Ashworth,Submasters,Wraps,F,60,59.87,TN,79.38,40.82,129.27,249.48,,,SBD,1
Jamie McDougal,Open,Wraps,M,82.5,81.65,AR,244.94,206.38,294.84,746.16,210.92,,SBD,1
David Militana,Open,Wraps,M,90,89.81,TN,226.8,167.83,240.4,635.03,,,SBD,1
Joseph Judd,Open,Wraps,M,110,109.5,VA,213.19,129.27,249.48,591.94,,,SBD,1
Kelly Wolford,Open,Wraps,M,118,117.48,NC,249.48,124.74,263.08,637.3,,,SBD,1
Robbie Robinson,Open,Wraps,M,140,133.58,NC,199.58,170.1,233.6,603.28,,,SBD,1
Jonathan Vick,Open,Wraps,M,125,119.52,AR,335.66,219.99,351.53,907.18,,,SBD,1
John Reece,Open,Wraps,M,118,116.12,TN,204.12,158.76,226.8,589.67,,,SBD,2
Jeff Phillips #1,Masters 40-44,Wraps,M,82.5,75.07,AR,219.99,138.35,244.94,603.28,,,SBD,1
Rick Storment,Masters 40-44,Wraps,M,118,114.76,AR,240.4,140.61,249.48,630.49,,254.01,SBD,1
David Stanley,Masters 50-54,Wraps,M,110,107.5,VA,238.14,181.44,215.46,635.03,,,SBD,1
Phil Cealey,Masters 50-54,Wraps,M,125,120.84,TN,199.58,127.01,240.4,566.99,,,SBD,1
Lee Litchle,Masters 65-69,Wraps,M,82.5,,FL,145.15,,,,,,SBD,DQ
Mathew Duncan,Teenage 13-15,Single-ply,M,56,53.3,TN,108.86,61.23,122.47,292.57,,,SBD,1
Corey Oakley,Teenage 16-17,Single-ply,M,75,73.94,TN,147.42,92.99,156.49,396.89,,,SBD,1
John Duncan,Teenage 16-17,Single-ply,M,82.5,82.1,TN,199.58,124.74,229.06,553.38,,,SBD,1
Brian Gravely,Juniors,Single-ply,M,82.5,82.33,NC,,,,,,,SBD,DQ
Michael Richardson,Open,Single-ply,M,67.5,67.36,MS,174.63,97.52,154.22,426.38,,,SBD,1
Mark Steel,Open,Single-ply,M,100,99.97,TN,285.76,195.04,254.01,734.82,,,SBD,1
Terry Burgin,Open,Single-ply,M,110,110,TN,303.91,217.72,258.55,780.18,,,SBD,1
Charles Bailey,Open,Single-ply,M,140,127.01,FL,455.86,303.91,347,1106.77,,,SBD,1
Jack Kottwitz,Open,Single-ply,M,140+,153.31,AL,374.21,278.96,258.55,911.72,,,SBD,1
Jim Hoskinson,Open,Single-ply,M,140+,,FL,,,,,,,SBD,DQ
Mark Steel,Police and Fire,Single-ply,M,100,99.97,TN,285.76,195.04,254.01,734.82,,,SBD,1
Jon Shackelford,Submasters,Single-ply,M,100,,MS,294.84,229.06,306.17,830.07,,,SBD,1
Christ Bryant,Masters 40-44,Single-ply,M,140,,TN,229.06,185.97,219.99,635.03,,,SBD,1
Billy Wingo,Masters 45-49,Single-ply,M,75,74.57,TN,170.1,124.74,208.65,503.49,,,SBD,1
James Elmore,Masters 60-64,Single-ply,M,90,89.81,TN,161.03,92.99,192.78,446.79,,,SBD,1
Isaiah Bagley,Teenage 18-19,Multi-ply,M,75,74.84,GA,136.08,108.86,183.7,428.64,,,SBD,1
Justin Richardson,Teenage 18-19,Multi-ply,M,90,87.09,MS,306.17,204.12,283.5,793.79,,,SBD,1
Laura Phelps-Sweatt,Open,Multi-ply,F,75,74.84,OH,319.78,229.06,231.33,780.18,,,SBD,1
Melissa Garrett,Open,Multi-ply,F,90+,162.84,TN,306.17,226.8,226.8,759.77,,,SBD,1
Brad Bell,Juniors,Multi-ply,M,82.5,82.1,LA,,,,,,,SBD,DQ
John Brown,Open,Multi-ply,M,100,97.3,OH,369.68,283.5,238.14,891.31,,,SBD,1
Tom Hypes,Open,Multi-ply,M,110,108.86,OH,399.16,272.16,258.55,929.86,,,SBD,1
Chris Janek,Open,Multi-ply,M,140,139.71,IL,487.61,319.78,349.27,1156.66,,,SBD,1
Jason Davis,Submasters,Multi-ply,M,90,89.81,TN,294.84,215.46,299.37,809.66,,,SBD,1
Markcus Millner,Submasters,Multi-ply,M,140+,152.63,TN,317.51,183.7,288.03,789.25,,,SBD,1
Frank Phillips,Masters 40-44,Multi-ply,M,118,117.03,TN,362.87,229.06,272.16,864.09,,,SBD,1
Wade Johnson,Masters 40-44,Multi-ply,M,140+,155.58,TN,439.98,303.91,317.51,1061.41,,,SBD,1
Wesley Claborn,Teenage 16-17,Raw,M,110,107.73,GA,,149.69,242.67,392.36,,,BD,1
Harley Cox,Teenage 18-19,Raw,M,90,86.64,AR,,136.08,206.38,342.46,,,BD,1
Shane Everage,Open,Raw,M,100,97.75,KY,,206.38,249.48,455.86,,,BD,1
Gary Lands,Masters 45-49,Raw,M,100,99.34,GA,,161.03,240.4,401.43,,,BD,1
Eddie Adkins,Masters 55-59,Raw,M,110,105.51,TN,,163.29,215.46,378.75,,,BD,1
Brandon Smith,Teenage 13-15,Single-ply,M,82.5,76.88,TN,,99.79,213.19,312.98,,,BD,1
Rance Clayton,Open,Single-ply,M,110,106.14,MS,,210.92,283.5,494.42,,,BD,1
Mike Hood,Open,Single-ply,M,118,111.58,TN,,233.6,244.94,478.54,,,BD,1
Jason Davis,Submasters,Multi-ply,M,90,90,TN,,215.46,299.37,514.83,,,BD,1
Ian Greer,Teenage 13-15,Raw,M,52,51.71,TN,,47.63,,47.63,,,B,1
Gerald Dunbar,Juniors,Raw,M,110,,AR,,172.37,,172.37,,,B,1
Mack White,Open,Raw,M,82.5,78.93,KY,,179.17,,179.17,,,B,1
Shane Everagae,Open,Raw,M,100,97.7,KY,,206.38,,206.38,,,B,1
Dan Martin,Open,Raw,M,110,108.86,AR,,195.04,,195.04,,,B,1
Chris Drummond,Open,Raw,M,118,116.12,VA,,219.99,,219.99,,,B,1
Anthony Ford,Police and Fire,Raw,M,110,,AL,,217.72,,217.72,,,B,1
Atavis Campbell,Police and Fire,Raw,M,118,117.48,MS,,215.46,,215.46,,,B,1
Dedrick Henry,Submasters,Raw,M,90,86.64,GA,,161.03,,161.03,,,B,1
Lee Morris,Masters 40-44,Raw,M,90,89.9,AL,,179.17,,179.17,,,B,1
Anthony Ford,Masters 40-44,Raw,M,110,,AL,,217.72,,217.72,,,B,1
Dan Martin,Masters 40-44,Raw,M,110,,AR,,195.04,,195.04,,,B,2
Tom Hayes,Masters 45-49,Raw,M,100,97.07,AR,,181.44,,181.44,,,B,1
Gary Lands,Masters 45-49,Raw,M,100,99.34,GA,,161.03,,161.03,,,B,2
John Heard,Masters 45-49,Raw,M,140+,160.57,GA,,,,,,,B,DQ
JC Lewis,Masters 55-59,Raw,M,75,75,AL,,129.27,,129.27,,,B,1
Khamaali Rowan,Masters 65-69,Raw,M,90,89.81,GA,,124.74,,124.74,,,B,1
Justin Rogers,Open,Single-ply,M,110,106.78,AR,,238.14,,238.14,,,B,1
David Shirley,Masters 40-44,Single-ply,M,100,99.79,AR,,226.8,,226.8,,,B,1
Jonathan Britt,Juniors,Multi-ply,M,82.5,,NC,,149.69,,149.69,,,B,1
Dana Shirley,Open,Multi-ply,F,90+,,,,,,,,,B,DQ
Kevin Harmon,Open,Multi-ply,M,75,,MS,,242.67,,242.67,,,B,1
Chris Neal,Open,Multi-ply,M,82.5,,,,,,,,,B,DQ
Ken Millrany,Open,Multi-ply,M,100,,TN,,285.76,,285.76,,,B,1
Chris Smith #16,Open,Multi-ply,M,110,,,,,,,,,B,DQ
Jeff Weaver,Open,Multi-ply,M,118,,TN,,285.76,,285.76,,,B,1
Harley Timbs,Open,Multi-ply,M,125,,TN,,365.14,,365.14,,,B,1
Jim Hoskinson,Open,Multi-ply,M,140,,FL,,353.8,,353.8,,,B,1
Joey Smith,Open,Multi-ply,M,140,,NC,,344.73,,344.73,,,B,2
Karl Schulz,Police and Fire,Multi-ply,M,110,,IL,,263.08,,263.08,,,B,1
Alex Johnson,Submasters,Multi-ply,M,82.5,,MS,,165.56,,165.56,,,B,1
JB Hill,Submasters,Multi-ply,M,118,117.5,TN,,299.37,,299.37,,,B,1
Shannon Amos,Submasters,Multi-ply,M,125,118.39,TN,,235.87,,235.87,,,B,1
Joey Smith,Submasters,Multi-ply,M,140,,NC,,344.73,,344.73,,,B,1
Robert Vick,Submasters,Multi-ply,M,140,,IL,,181.44,,181.44,,,B,2
Jeff Weaver,Masters 40-44,Multi-ply,M,118,,TN,,285.76,,285.76,,,B,1
Wesley Claborn,Teenage 16-17,Raw,M,110,,GA,,,242.67,242.67,,,D,1
Sara Gregory,Teenage 18-19,Raw,F,60,,TN,,,113.4,113.4,,,D,1
Brian Kutsch,Open,Raw,M,75,,AL,,,190.51,190.51,,,D,1
Jared Wilsey,Open,Raw,M,90,,TN,,,272.16,272.16,,,D,1
Joseph Sneed,Masters 40-44,Raw,M,82.5,,TN,,,181.44,181.44,,,D,1
Tony Harris,Masters 40-44,Raw,M,90,,TN,,,179.17,179.17,,,D,1
Albert Gavaldon,Masters 45-49,Raw,M,118,,TN,,,181.44,181.44,,,D,1
Don Millrany,Open,Single-ply,M,100,,TN,,,240.4,240.4,,,D,1
Joe Ladnier,Open,Single-ply,M,110,,MS,,,319.78,319.78,,,D,1
