Event,Division,WeightClassKg,Best3BenchKg,Bench4Kg,Best3DeadliftKg,Deadlift4Kg,TotalKg,Name,Country,State,Equipment,Sex,Place
D,Class 1,67.5,,,195,,195,Dave Constantineau,,WI,Single-ply,M,1
D,Class 1,75,,,200,,200,James Lin,,WA,Single-ply,M,1
D,Class 1,75,,,192.5,,192.5,Rick Michaud,,ME,Single-ply,M,2
D,Class 1,75,,,182.5,,182.5,Caleb Nute,,ME,Single-ply,M,3
D,Class 1,82.5,,,250,,250,Ben Dehghan,,WA,Single-ply,M,1
D,Class 1,82.5,,,197.5,,197.5,Josh Nemcek,,UT,Single-ply,M,4
D,Class 1,82.5,,,250,,250,Kaneala Ablao,,HI,Single-ply,M,2
D,Class 1,82.5,,,195,,195,Aramiq Amirchian,,AZ,Single-ply,M,5
D,Class 1,82.5,,,217.5,,217.5,Jackson Jones,,WA,Single-ply,M,3
D,Class 1,90,,,285.5,,285.5,Antjuan Buffett,,TX,Single-ply,M,1
D,Class 1,90,,,205,,205,Matthew Collins #3,,CA,Multi-ply,M,1
D,Class 1,90,,,255,,255,Preston Quinn,,WI,Single-ply,M,2
D,Class 1,90,,,252.5,,252.5,Zachary Freemantle,,WA,Single-ply,M,3
D,Class 1,90,,,210,,210,Derek Kumagai,,WA,Single-ply,M,5
D,Class 1,90,,,232.5,,232.5,Kevin Dunford,Canada,,Single-ply,M,4
D,Class 1,100,,,192.5,,192.5,Michael Collins,,CA,Multi-ply,M,1
D,Class 1,100,,,272.5,,272.5,Adam Pixton,,UT,Single-ply,M,1
D,Class 1,100,,,265.5,,265.5,John Westleigh,,ME,Single-ply,M,2
D,Class 1,100,,,265,,265,Brady Hosley,,UT,Single-ply,M,3
D,Class 1,100,,,250,,250,Marks Labostrie III,,TX,Single-ply,M,4
D,Class 1,100,,,237.5,,237.5,Kyle Herzik,,NV,Single-ply,M,5
D,Class 1,100,,,217.5,,217.5,Samuel Swift,,TX,Single-ply,M,6
D,Class 1,110,,,165,,165,Harry Munro,,CA,Single-ply,M,6
D,Class 1,110,,,260,,260,Mike Lazenby,,UT,Single-ply,M,2
D,Class 1,110,,,278,,278,Dennis Schmidt,,MN,Single-ply,M,1
D,Class 1,110,,,220,,220,Joseph Doyon,,ME,Single-ply,M,3
D,Class 1,110,,,182.5,,182.5,Chris Knott,,MN,Single-ply,M,5
D,Class 1,110,,,215,,215,William G Caughey,,UT,Single-ply,M,4
D,Class 1,117.5,,,250,,250,Daniel Oldham,,ID,Single-ply,M,2
D,Class 1,117.5,,,280,,280,David Palmer,,ME,Single-ply,M,1
D,Class 1,117.5,,,227.5,,227.5,Jeremy Donnelly,,AZ,Single-ply,M,3
D,Class 1,117.5,,,225,,225,Isaac Conde,,TX,Single-ply,M,4
D,Class 1,125,,,295,,295,Jason Sacre,,UT,Single-ply,M,1
D,Class 1,125,,,275,,275,Marcus Ellison,,IL,Single-ply,M,2
D,Class 1,125,,,273,,273,Gene Cameron,,AZ,Single-ply,M,3
D,Class 1,140,,,267.5,,267.5,Tarlus McDaniel,,TX,Single-ply,M,1
D,Class 1,140+,,,205,,205,Mitchell Garrett,,TX,Single-ply,M,1
D,Law-Fire 40-47,110,,,260,,260,Freddy Crosby,,IL,Single-ply,M,2
D,Law-Fire 40-47,110,,,310,,310,Troy Fryar,,WA,Single-ply,M,1
D,Law-Fire 40-47,117.5,,,255,272.5,255,Flip Silva,,TX,Multi-ply,M,1
D,Law-Fire 40-47,125,,,227.5,,227.5,Bobby Gray,,CA,Single-ply,M,2
D,Law-Fire 40-47,125,,,255,,255,Tommy Harrison,,IL,Single-ply,M,1
D,Law-Fire 48-55,75,,,195,,195,Larry Esquivel,,CA,Single-ply,M,1
D,Law-Fire 48-55,90,,,255.5,,255.5,Dan Guches,,OR,Single-ply,M,1
D,Law-Fire 48-55,90,,,205,,205,David Edborg,,NY,Single-ply,M,3
D,Law-Fire 48-55,90,,,235,241,235,Luis Fernando Meireles Dias,Brazil,,Single-ply,M,2
D,Law-Fire 48-55,100,,,315,,315,Al Bianchi,,MA,Single-ply,M,1
D,Law-Fire 48-55,100,,,227.5,,227.5,Lance Davis,,UT,Single-ply,M,2
D,Law-Fire 56-63,90,,,250,,250,Charles McFarland,,OR,Single-ply,M,1
D,Law-Fire 56-63,100,,,190,,190,William Denniston,,MI,Multi-ply,M,1
D,Law-Fire 56-63,110,,,255,,255,Manny Burruel,,CA,Multi-ply,M,1
D,Law-Fire 56-63,110,,,277.5,,277.5,Mike Frizzell,,IL,Single-ply,M,1
D,Law-Fire 56-63,125,,,205,,205,Michal Johnson,,CA,Multi-ply,M,1
D,Law-Fire 56-63,125,,,235,,235,Dennis Schultz,,CA,Single-ply,M,1
D,Law-Fire 56-63,125,,,187.5,,187.5,Jay Simmons,,TX,Single-ply,M,2
D,Law-Fire 64,67.5,,,170,,170,Gary Miller #2,,NV,Multi-ply,M,1
D,Law-Fire 64,100,,,245,,245,Jon Wolbers,Canada,,Single-ply,M,1
D,Law-Fire 64,125,,,235,,235,Mike Fryar,,WA,Single-ply,M,1
D,Law-Fire 64,140,,,105.5,,105.5,JP Krachunis,,CA,Single-ply,M,1
D,Law-Fire Open,75,,,180,,180,Eli Huizar Zuniga,,WA,Multi-ply,M,1
D,Law-Fire Open,82.5,,,235,,235,Donavin Bender,,ND,Single-ply,M,1
D,Law-Fire Open,90,,,255.5,,255.5,Dan Guches,,OR,Single-ply,M,1
D,Law-Fire Open,90,,,240,,240,Ryan Marble,,UT,Single-ply,M,2
D,Law-Fire Open,90,,,235,,235,Luis Fernando Meireles Dias,Brazil,,Single-ply,M,3
D,Law-Fire Open,125,,,255,,255,Tommy Harrison,,IL,Single-ply,M,1
D,Law-Fire Open,140,,,230,245,230,William Lee,,TX,Multi-ply,M,1
D,Law-Fire Open,110,,,310,,310,Troy Fryar,,WA,Single-ply,M,1
D,Law-Fire Submasters,100,,,230,,230,Nick Berriman,,OR,Single-ply,M,1
D,Law-Fire Submasters,140,,,230,245,230,William Lee,,TX,Multi-ply,M,1
D,Open,67.5,,,190,,190,Ray Padilla,,CA,Single-ply,M,1
D,Open,67.5,,,232.5,,232.5,James Valmoja,,HI,Multi-ply,M,1
D,Open,75,,,215,,215,Tanner Kennedy,,NY,Single-ply,M,4
D,Open,75,,,282.5,,282.5,Derrick Martini,,MN,Single-ply,M,1
D,Open,75,,,230,,230,Alfredo Evangelista,,OR,Single-ply,M,2
D,Open,75,,,227.5,,227.5,Richard Cirigliano,,CA,Single-ply,M,3
D,Open,82.5,,,300,,300,Matt Griffin,,TX,Single-ply,M,2
D,Open,82.5,,,,,,Tom Eiseman,,NJ,Single-ply,M,DQ
D,Open,82.5,,,195,,195,Bruno Dos Santos Modernel,Brazil,,Single-ply,M,8
D,Open,82.5,,,330,,330,Romar Lagamo,,HI,Single-ply,M,1
D,Open,82.5,,,320,,320,Edwin Manmano,,HI,Multi-ply,M,1
D,Open,82.5,,,297.5,,297.5,Leamon Woodley,,WA,Single-ply,M,3
D,Open,82.5,,,235,,235,Donavin Bender,,ND,Single-ply,M,4
D,Open,82.5,,,212.5,,212.5,Daniel Porrazzo,,MA,Single-ply,M,5
D,Open,82.5,,,205,,205,Daniel Sisneros,,CA,Single-ply,M,6
D,Open,82.5,,,205,,205,Ray Segura,,WA,Single-ply,M,7
D,Open,90,,,237.5,,237.5,Kevin Zybert,,NY,Single-ply,M,4
D,Open,90,,,297.5,,297.5,Pasi Koukkula,Finland,,Single-ply,M,1
D,Open,90,,,250,,250,Victor Luiz Ramos Medeiros,Brazil,,Single-ply,M,3
D,Open,90,,,292.5,,292.5,Eddie DiFruscia,,NH,Single-ply,M,2
D,Open,100,,,315,,315,Al Bianchi,,MA,Single-ply,M,1
D,Open,100,,,265,,265,Dustin McFarland,,OR,Multi-ply,M,1
D,Open,100,,,303.5,,303.5,Jimmy House,,AZ,Single-ply,M,2
D,Open,100,,,292.5,300,292.5,Drew Burton,Canada,,Single-ply,M,3
D,Open,100,,,282.5,,282.5,Christopher Calderon,,TX,Single-ply,M,4
D,Open,100,,,272.5,,272.5,Adam Pixton,,UT,Single-ply,M,5
D,Open,110,,,260,,260,Ryan Martin,,ME,Single-ply,M,3
D,Open,110,,,320,,320,Tim Sparkes,,AZ,Single-ply,M,1
D,Open,110,,,282.5,,282.5,Robert Exum,,CA,Single-ply,M,2
D,Open,110,,,260,,260,Marcelo Schneider,Brazil,,Single-ply,M,4
D,Open,117.5,,,322.5,,322.5,Kari Pöntinen,Finland,,Single-ply,M,1
D,Open,117.5,,,210,215,210,Eduardo Turrini Ribeiro,Brazil,,Single-ply,M,4
D,Open,117.5,,,282.5,,282.5,Terry Putman,,OK,Single-ply,M,2
D,Open,117.5,,,227.5,,227.5,Paul Mercado,,IL,Single-ply,M,3
D,Open,125,,,287.5,,287.5,Dwight Anderson,,WI,Single-ply,M,3
D,Open,125,,,355,,355,Patrick Holloway,,AZ,Single-ply,M,1
D,Open,125,,,227.5,,227.5,Jim Presley,,CA,Multi-ply,M,1
D,Open,125,,,310,,310,Joe Carter,,TN,Single-ply,M,2
D,Open,125,,,235,,235,Dennis Schultz,,CA,Single-ply,M,4
D,Open,140,,,333,,333,Colby Ballinger,,CA,Single-ply,M,2
D,Open,140,,,351,,351,Harri Väisänen,Finland,,Single-ply,M,1
D,Open,140+,,,227.5,,227.5,Scott Wesley Jordan,,AZ,Single-ply,M,5
D,Open,140+,,,370,,370,William Mott,,UT,Single-ply,M,1
D,Open,140+,,,320,,320,Keoni Reich,,HI,Single-ply,M,2
D,Open,140+,,,262.5,,262.5,Thomas Guiney,,OK,Single-ply,M,3
D,Open,140+,,,252.5,,252.5,Joe Mickelson,,WA,Single-ply,M,4
D,Special Olympian,82.5,,,165,,165,Dylan Kuehl,,WA,Single-ply,M,1
B,Class 1,67.5,130,,,,130,Dave Constantineau,,WI,Single-ply,M,1
B,Class 1,75,,,,,,Charles Vaughn,,OR,Single-ply,M,DQ
B,Class 1,75,175,,,,175,Nick Buck,,WI,Single-ply,M,1
B,Class 1,75,170,,,,170,Rick Michaud,,ME,Multi-ply,M,1
B,Class 1,75,162.5,,,,162.5,Jeramie Dawley,,OR,Single-ply,M,2
B,Class 1,75,150,,,,150,James Lin,,WA,Multi-ply,M,2
B,Class 1,75,157.5,,,,157.5,Robert Hutchens,,NJ,Single-ply,M,3
B,Class 1,75,145,,,,145,Andy Kaszubski,,WI,Single-ply,M,4
B,Class 1,82.5,,,,,,Kawika Machado,,HI,Single-ply,M,DQ
B,Class 1,82.5,195,,,,195,Kaneala Ablao,,HI,Single-ply,M,1
B,Class 1,82.5,172.5,,,,172.5,Jackson Jones,,WA,Multi-ply,M,1
B,Class 1,82.5,147.5,,,,147.5,Matthew Jones #8,,MI,Single-ply,M,6
B,Class 1,82.5,190,,,,190,Edwin Manmano,,HI,Single-ply,M,2
B,Class 1,82.5,172.5,,,,172.5,Aramiq Amirchian,,AZ,Single-ply,M,3
B,Class 1,82.5,157.5,,,,157.5,Scott Rickford,,MN,Single-ply,M,4
B,Class 1,82.5,153.5,,,,153.5,Dylan Kuehl,,WA,Single-ply,M,5
B,Class 1,90,,,,,,Arnel Sibucao,,HI,Single-ply,M,DQ
B,Class 1,90,112.5,,,,112.5,Chansey Mc Kendrick,,UT,Single-ply,M,6
B,Class 1,90,212.5,,,,212.5,Preston Quinn,,WI,Single-ply,M,1
B,Class 1,90,197.5,,,,197.5,Patrick Rocha,,TX,Multi-ply,M,1
B,Class 1,90,140,,,,140,Derek Kumagai,,WA,Multi-ply,M,2
B,Class 1,90,200,,,,200,Benny Long,,OK,Single-ply,M,2
B,Class 1,90,185,,,,185,Kamu Lyman,,HI,Single-ply,M,3
B,Class 1,90,182.5,,,,182.5,Pete Ramundo,,NY,Single-ply,M,4
B,Class 1,90,115,,,,115,Matthew Collins #3,,CA,Single-ply,M,5
B,Class 1,100,,,,,,Samuel Swift,,TX,Single-ply,M,DQ
B,Class 1,100,155,,,,155,Will Potter,,WA,Multi-ply,M,1
B,Class 1,100,227.5,,,,227.5,John Westleigh,,ME,Single-ply,M,1
B,Class 1,100,147.5,,,,147.5,Michael Collins,,CA,Multi-ply,M,2
B,Class 1,100,182.5,,,,182.5,Kyle Herzik,,NV,Single-ply,M,2
B,Class 1,100,170,,,,170,Brian Fahrenfeld,,NY,Single-ply,M,3
B,Class 1,110,82.5,,,,82.5,Harry Munro,,CA,Single-ply,M,4
B,Class 1,110,,,,,,Joseph Doyon,,ME,Single-ply,M,DQ
B,Class 1,110,,,,,,Brent Gapusan,,HI,Multi-ply,M,DQ
B,Class 1,110,132.5,,,,132.5,Chris Knott,,MN,Single-ply,M,2
B,Class 1,110,208,,,,208,Frank Powell,,OK,Single-ply,M,1
B,Class 1,110,97.5,,,,97.5,William G Caughey,,UT,Single-ply,M,3
B,Class 1,117.5,,,,,,Jeremy Donnelly,,AZ,Single-ply,M,DQ
B,Class 1,117.5,,,,,,Joe LaSalle,,WA,Single-ply,M,DQ
B,Class 1,117.5,147.5,,,,147.5,Isaac Conde,,TX,Single-ply,M,3
B,Class 1,117.5,252.5,,,,252.5,Daniel Oldham,,ID,Single-ply,M,1
B,Class 1,117.5,218,,,,218,Mick Quilici,,NV,Multi-ply,M,1
B,Class 1,117.5,227.5,,,,227.5,David Palmer,,ME,Single-ply,M,2
B,Class 1,125,172.5,,,,172.5,Gene Cameron,,AZ,Single-ply,M,1
B,Class 1,125,172.5,,,,172.5,Marcus Ellison,,IL,Single-ply,M,2
B,Class 1,140,,,,,,Walter Kupihe,,HI,Single-ply,M,DQ
B,Class 1,140,160,,,,160,John Solleder,,TX,Single-ply,M,1
B,Class 1,140+,130,,,,130,Keith Sayles,,TX,Multi-ply,M,1
B,Elite Open,67.5,,,,,,Kerwin Unten,,HI,Single-ply,M,DQ
B,Elite Open,75,255.5,,,,255.5,Donald Ramil,,HI,Single-ply,M,1
B,Elite Open,75,235,,,,235,David R Smith,,TX,Single-ply,M,2
B,Elite Open,125,297.5,,,,297.5,David Lewis,,IL,Single-ply,M,1
B,Elite Open,140+,,,,,,Tiny Meeker,,TX,Single-ply,M,DQ
B,Elite Open,140+,,,,,,Robert Vick,,IL,Single-ply,M,DQ
B,Law-Fire 40-47,110,170,,,,170,Freddy Crosby,,IL,Single-ply,M,1
B,Law-Fire 40-47,117.5,,,,,,Flip Silva,,TX,Multi-ply,M,DQ
B,Law-Fire 40-47,117.5,237.5,247.5,,,237.5,Chris Chopp,,UT,Multi-ply,M,1
B,Law-Fire 40-47,125,167.5,,,,167.5,Bobby Gray,,CA,Single-ply,M,2
B,Law-Fire 40-47,125,305,,,,305,Tommy Harrison,,IL,Single-ply,M,1
B,Law-Fire 40-47,140+,,,,,,Hiram Kaikaina III,,HI,Multi-ply,M,DQ
B,Law-Fire 48-55,90,,,,,,Gary McFarland,,CA,Single-ply,M,DQ
B,Law-Fire 48-55,90,137.5,,,,137.5,Dan Guches,,OR,Single-ply,M,2
B,Law-Fire 48-55,90,155,,,,155,Luis Fernando Meireles Dias,Brazil,,Single-ply,M,1
B,Law-Fire 48-55,100,230,,,,230,Brian Reynolds,,WA,Single-ply,M,1
B,Law-Fire 48-55,100,210,,,,210,Joe Gardner,,IL,Single-ply,M,2
B,Law-Fire 48-55,110,155,160,,,155,Dave Ettinger,Canada,,Single-ply,M,1
B,Law-Fire 48-55,125,190.5,,,,190.5,Eric Jones,,MI,Single-ply,M,1
B,Law-Fire 48-55,140,227.5,,,,227.5,Warren Orr,Canada,,Single-ply,M,1
B,Law-Fire 56-63,90,147.5,,,,147.5,Charles McFarland,,OR,Single-ply,M,1
B,Law-Fire 56-63,100,185,,,,185,William Denniston,,MI,Single-ply,M,1
B,Law-Fire 56-63,110,130,,,,130,Manny Burruel,,CA,Multi-ply,M,1
B,Law-Fire 56-63,110,272.5,,,,272.5,Mike Frizzell,,IL,Single-ply,M,1
B,Law-Fire 56-63,125,,,,,,Michal Johnson,,CA,Multi-ply,M,DQ
B,Law-Fire 56-63,125,187.5,,,,187.5,Dennis Schultz,,CA,Single-ply,M,2
B,Law-Fire 56-63,125,222.5,,,,222.5,Jay Simmons,,TX,Single-ply,M,1
B,Law-Fire 56-63,125,135,,,,135,Donald Bryant,,WA,Single-ply,M,3
B,Law-Fire 64,67.5,155,,,,155,Gary Miller #2,,NV,Multi-ply,M,1
B,Law-Fire 64,100,165,,,,165,Jon Wolbers,Canada,,Single-ply,M,1
B,Law-Fire 64,140,45,,,,45,JP Krachunis,,CA,Single-ply,M,1
B,Law-Fire Open,75,125,,,,125,Eli Huizar Zuniga,,WA,Multi-ply,M,1
B,Law-Fire Open,82.5,160,,,,160,Donavin Bender,,ND,Single-ply,M,1
B,Law-Fire Open,90,137.5,,,,137.5,Dan Guches,,OR,Single-ply,M,4
B,Law-Fire Open,90,,,,,,Gary McFarland,,CA,Single-ply,M,DQ
B,Law-Fire Open,90,260.5,272.5,,,260.5,Ryan Marble,,UT,Single-ply,M,1
B,Law-Fire Open,90,155,,,,155,Luis Fernando Meireles Dias,Brazil,,Single-ply,M,3
B,Law-Fire Open,90,197.5,,,,197.5,Darren Carr,,UT,Single-ply,M,2
B,Law-Fire Open,125,305,,,,305,Tommy Harrison,,IL,Single-ply,M,1
B,Law-Fire Open,140,262.5,278,,,262.5,William Lee,,TX,Multi-ply,M,1
B,Law-Fire Submasters,100,187.5,,,,187.5,Nick Berriman,,OR,Single-ply,M,1
B,Law-Fire Submasters,140,262.5,278,,,262.5,William Lee,,TX,Multi-ply,M,1
B,Open,60,183.5,,,,183.5,Jallel Fabro,,HI,Single-ply,M,1
B,Open,67.5,182.5,,,,182.5,Jake Fiscus,,OR,Single-ply,M,1
B,Open,67.5,182.5,,,,182.5,Raymond Gallegos,,CA,Single-ply,M,2
B,Open,75,,,,,,Deron Agaran,,HI,Single-ply,M,DQ
B,Open,75,190,,,,190,Alfredo Evangelista,,OR,Single-ply,M,1
B,Open,75,117.5,,,,117.5,Tanner Kennedy,,NY,Single-ply,M,2
B,Open,82.5,190,,,,190,Matt Griffin,,TX,Single-ply,M,3
B,Open,82.5,152.5,,,,152.5,Leamon Woodley,,WA,Single-ply,M,6
B,Open,82.5,237.5,,,,237.5,Willard Crossen III,,WA,Single-ply,M,1
B,Open,82.5,100,,,,100,Bruno Dos Santos Modernel,Brazil,,Single-ply,M,7
B,Open,82.5,205,,,,205,Daniel Sisneros,,CA,Single-ply,M,2
B,Open,82.5,185,,,,185,Ray Segura,,WA,Single-ply,M,4
B,Open,82.5,160,,,,160,Donavin Bender,,ND,Single-ply,M,5
B,Open,90,150,,,,150,Kevin Zybert,,NY,Single-ply,M,3
B,Open,90,210,,,,210,James Noblit,,OR,Multi-ply,M,1
B,Open,90,225,,,,225,Kim Päivöke,Finland,,Single-ply,M,1
B,Open,90,147.5,,,,147.5,Victor Luiz Ramos Medeiros,Brazil,,Single-ply,M,4
B,Open,90,182.5,,,,182.5,Pete Ramundo,,NY,Single-ply,M,2
B,Open,90,60,,,,60,Pasi Koukkula,Finland,,Single-ply,M,5
B,Open,100,,,,,,Seth Reed,,ME,Single-ply,M,DQ
B,Open,100,273,,,,273,Coby Washburn,,TX,Single-ply,M,1
B,Open,100,265,,,,265,Chad Bertelmann,,HI,Single-ply,M,2
B,Open,100,210,,,,210,Juha Pukkila,Finland,,Single-ply,M,3
B,Open,110,,,,,,Brent Gapusan,,HI,Multi-ply,M,DQ
B,Open,110,,,,,,Austin Sellers,,TX,Single-ply,M,DQ
B,Open,110,190,,,,190,Ryan Martin,,ME,Single-ply,M,2
B,Open,110,280,,,,280,Kenneth Millrany,,TN,Multi-ply,M,1
B,Open,110,287.5,,,,287.5,Joey Murphy,,GA,Single-ply,M,1
B,Open,110,185,,,,185,Marcelo Schneider,Brazil,,Single-ply,M,3
B,Open,110,235,,,,235,Ulrich Zamora,,NV,Multi-ply,M,2
B,Open,117.5,252.5,,,,252.5,Daniel Oldham,,ID,Single-ply,M,1
B,Open,117.5,185,190,,,185,Eduardo Turrini Ribeiro,Brazil,,Single-ply,M,2
B,Open,117.5,125,,,,125,John Johnson,,MI,Single-ply,M,3
B,Open,125,,,,,,Willard Crossen Jr,,WA,Single-ply,M,DQ
B,Open,125,,,,,,George Leota,,HI,Multi-ply,M,DQ
B,Open,125,215,,,,215,Dwight Anderson,,WI,Single-ply,M,2
B,Open,125,227.5,,,,227.5,Jim Presley,,CA,Multi-ply,M,1
B,Open,125,265.5,,,,265.5,Norman Tavares,,HI,Single-ply,M,1
B,Open,140,192.5,,,,192.5,Colby Ballinger,,CA,Single-ply,M,2
B,Open,140,342.5,,,,342.5,Tim Moon,,GA,Single-ply,M,1
B,Open,140,182.5,,,,182.5,Dennis Schultz,,CA,Single-ply,M,3
B,Open,140+,265,,,,265,Scott Bromeisl,,WI,Single-ply,M,1
B,Open,140+,237.5,,,,237.5,Joe Mickelson,,WA,Single-ply,M,2
B,Open,140+,301.5,,,,301.5,Gary Shim,,HI,Multi-ply,M,1
B,Special Olympian,48,65,67.5,,,65,Cameron Evans,,TX,Single-ply,M,1
B,Special Olympian,82.5,153.5,,,,153.5,Dylan Kuehl,,WA,Single-ply,M,1
D,Class 1,52,,,92.5,,92.5,Jeanne Morris,,WA,Single-ply,F,1
D,Class 1,56,,,107.5,,107.5,Rebecca Moore,,WA,Single-ply,F,1
D,Class 1,60,,,141,,141,Dolores Garcia-Munro,,CA,Single-ply,F,2
D,Class 1,60,,,142.5,,142.5,Danielle Llamas,,OR,Single-ply,F,1
D,Class 1,60,,,115.5,,115.5,Ardith Stitt,,UT,Single-ply,F,5
D,Class 1,60,,,135,,135,Lynn Puana,,HI,Single-ply,F,3
D,Class 1,60,,,122.5,,122.5,Michelle Kahakalau,,HI,Single-ply,F,4
D,Class 1,60,,,115,,115,Susan Chloupek,,WA,Single-ply,F,6
D,Class 1,60,,,110,,110,Mitzy Hurtado,,TX,Single-ply,F,7
D,Class 1,67.5,,,147.5,,147.5,Kayla Krueger,,WI,Single-ply,F,1
D,Class 1,67.5,,,120,,120,Holly Morello,,CA,Single-ply,F,2
D,Class 1,67.5,,,85.5,90,85.5,Cassidy Bauer,,MA,Single-ply,F,3
D,Class 1,75,,,137.5,,137.5,DeAnna Dutton,,WA,Single-ply,F,2
D,Class 1,75,,,140,,140,Briana Lacey,,AZ,Single-ply,F,1
D,Class 1,75,,,132.5,,132.5,Victoria Osuna,,OR,Single-ply,F,3
D,Class 1,82.5,,,152.5,,152.5,Millicent Jefferies,,IL,Single-ply,F,1
D,Class 1,82.5,,,117.5,,117.5,Pamela Michaels,,WA,Single-ply,F,2
D,Class 1,82.5,,,115,,115,Deborah Maxwell,,CA,Single-ply,F,3
D,Class 1,90,,,170.5,,170.5,Linda Gerking,,WA,Single-ply,F,1
D,Class 1,90,,,160,,160,Felicia Thomas,,IL,Single-ply,F,2
D,Class 1,100,,,182.5,,182.5,Jescelia Durr,,IL,Single-ply,F,1
D,Class 1,100,,,155,,155,Scharlotte Spencer,,TX,Single-ply,F,2
D,Class 1,90+,,,157.5,,157.5,Tiffany Capouch,,MN,Single-ply,F,1
D,Class 1,90+,,,155,,155,Kay Kadoun,,WA,Single-ply,F,2
D,Class 1,90+,,,150,,150,Lakisha Campbell,,TX,Single-ply,F,3
D,Class 1,90+,,,102.5,,102.5,Sharon Price,,TX,Single-ply,F,4
D,Juniors 20-25,52,,,92.5,,92.5,Brooke Caraccioli,,CA,Single-ply,F,1
D,Juniors 20-25,56,,,122.5,,122.5,Hannah Barnhill,,CA,Single-ply,F,1
D,Juniors 20-25,67.5,,,182.5,,182.5,Cristal Cabral,,TX,Single-ply,F,1
D,Juniors 20-25,67.5,,,142.5,,142.5,Natalie Caughey,,UT,Single-ply,F,2
D,Juniors 20-25,75,,,167.5,,167.5,Zena Kiyota,,HI,Single-ply,F,1
D,Juniors 20-25,75,,,145,,145,Alycia Rodriguez,,AZ,Single-ply,F,2
D,Juniors 20-25,75,,,137.5,,137.5,Nicole Camacho,,HI,Single-ply,F,4
D,Juniors 20-25,75,,,140,,140,Briana Lacey,,AZ,Single-ply,F,3
D,Juniors 20-25,75,,,115,,115,Rachel Clements,,AZ,Single-ply,F,5
D,Juniors 20-25,82.5,,,192.5,,192.5,Kayla Sua,,WA,Single-ply,F,1
D,Juniors 20-25,82.5,,,172.5,,172.5,Jessica Muskat,,HI,Single-ply,F,2
D,Juniors 20-25,90+,,,208,,208,Makala Davis,,AZ,Single-ply,F,1
D,Juniors 20-25,90+,,,165,,165,Rachelle Meidinger,,MT,Single-ply,F,2
D,Law-Fire 48-55,60,,,95,,95,Tammie Casper,,CA,Single-ply,F,1
D,Law-Fire 48-55,75,,,130,,130,Gion Prevard,,IL,Single-ply,F,1
D,Law-Fire 48-55,100,,,142.5,,142.5,Robin Martin,,IL,Single-ply,F,1
D,Law-Fire Open,75,,,130,,130,Gion Prevard,,IL,Single-ply,F,1
D,Law-Fire Open,90,,,,,,Alisha Howard,,WA,Single-ply,F,DQ
D,Law-Fire Submasters,82.5,,,100,,100,Dana Barnes,,IL,Single-ply,F,1
D,Open,44,,,152.5,155,152.5,Elizabeth Cabe,,HI,Single-ply,F,1
D,Open,48,,,147.5,,147.5,Linda Barnes,,CA,Multi-ply,F,1
D,Open,52,,,150,,150,Valesca Cristina Rocha,Brazil,,Single-ply,F,1
D,Open,56,,,139,,139,Martha Godinez-Shim,,HI,Single-ply,F,1
D,Open,60,,,142.5,,142.5,Arlene Jara,,NV,Single-ply,F,4
D,Open,60,,,192.5,,192.5,Jane McCubbin,,WI,Single-ply,F,1
D,Open,60,,,185,,185,Ana Catia Portilho Couto,Brazil,,Single-ply,F,2
D,Open,60,,,152.5,,152.5,Nichole Machado,,HI,Single-ply,F,3
D,Open,60,,,142.5,,142.5,Judy Vierra,,HI,Single-ply,F,5
D,Open,60,,,142.5,,142.5,Rachel Strauss,,HI,Single-ply,F,6
D,Open,67.5,,,,,,Rebekah Schmidt,,MN,Single-ply,F,DQ
D,Open,67.5,,,165,,165,Kimberly Phanthavong,,WA,Single-ply,F,1
D,Open,67.5,,,137.5,140,137.5,Peach Presley,,CA,Multi-ply,F,1
D,Open,67.5,,,155,,155,Krystal Miller,,NV,Single-ply,F,2
D,Open,67.5,,,155,,155,Rosa Narikiyo,,HI,Single-ply,F,3
D,Open,67.5,,,142.5,,142.5,Natalie Caughey,,UT,Single-ply,F,4
D,Open,75,,,150,,150,Adriane Harris,,TX,Single-ply,F,2
D,Open,75,,,110,,110,Kyla Mc Carty,,CA,Single-ply,F,6
D,Open,75,,,147.5,,147.5,Liza Sanchez,,MA,Single-ply,F,4
D,Open,75,,,216,,216,Cindy Shockman,,OR,Single-ply,F,1
D,Open,75,,,150,,150,Deb Kesper,,MA,Single-ply,F,3
D,Open,75,,,137.5,,137.5,Nicole Camacho,,HI,Single-ply,F,5
D,Open,82.5,,,192.5,,192.5,Kayla Sua,,WA,Single-ply,F,2
D,Open,82.5,,,195,,195,Sophia Hussary,,AZ,Single-ply,F,1
D,Open,82.5,,,172.5,,172.5,Jessica Muskat,,HI,Single-ply,F,3
D,Open,82.5,,,145,,145,Elizabeth Couture,,MA,Single-ply,F,4
D,Open,90,,,185,,185,Sarah Hartman,,WA,Single-ply,F,2
D,Open,90,,,215,,215,Alisha Howard,,WA,Single-ply,F,1
D,Open,90,,,160.5,,160.5,Irene Peterson,,MA,Single-ply,F,4
D,Open,90,,,182.5,,182.5,Kirsten Shockman,,WA,Single-ply,F,3
D,Open,90,,,147.5,,147.5,Amy Rudder,,TN,Single-ply,F,5
D,Open,100,,,170,,170,Megan Dutton,,TX,Single-ply,F,2
D,Open,100,,,217.5,,217.5,Holly Garner,,OR,Single-ply,F,1
D,Open,100,,,165,,165,Susan Johnson #2,,HI,Single-ply,F,3
D,Open,90+,,,208,,208,Makala Davis,,AZ,Single-ply,F,1
D,Open,90+,,,182.5,,182.5,Keeya Sutherland,,TX,Single-ply,F,2
D,Open,90+,,,170,,170,Ashley Boykin,,IL,Single-ply,F,3
D,Open,90+,,,152.5,,152.5,Alyssa Greenwood,,CA,Single-ply,F,4
D,Special Olympian,90,,,138,,138,Chloe Kaalund,,CA,Single-ply,F,1
D,Submasters 33-39,52,,,105,,105,Jamie Field,,CA,Single-ply,F,1
D,Submasters 33-39,60,,,152.5,,152.5,Nichole Machado,,HI,Single-ply,F,1
D,Submasters 33-39,60,,,142.5,,142.5,Rachel Strauss,,HI,Single-ply,F,2
D,Submasters 33-39,60,,,135,,135,Lynn Puana,,HI,Single-ply,F,3
D,Submasters 33-39,67.5,,,105,,105,Lynn Gilpin-Parks,,WI,Single-ply,F,5
D,Submasters 33-39,67.5,,,155,,155,Nida Namathep,,AZ,Single-ply,F,2
D,Submasters 33-39,67.5,,,200,,200,Rebekah Schmidt,,MN,Single-ply,F,1
D,Submasters 33-39,67.5,,,115,,115,Michelle Bialek,,MN,Single-ply,F,4
D,Submasters 33-39,67.5,,,155,,155,Rosa Narikiyo,,HI,Single-ply,F,3
D,Submasters 33-39,82.5,,,195,,195,Sophia Hussary,,AZ,Single-ply,F,1
D,Submasters 33-39,90,,,160.5,,160.5,Irene Peterson,,MA,Single-ply,F,1
D,Submasters 33-39,90,,,142.5,,142.5,Mary Denning,,WA,Single-ply,F,2
D,Submasters 33-39,100,,,217.5,,217.5,Holly Garner,,OR,Single-ply,F,1
D,Submasters 33-39,90+,,,160,,160,Michelle Garrett,,TX,Single-ply,F,2
D,Submasters 33-39,90+,,,147.5,,147.5,Janessa Sturtz,,MN,Single-ply,F,3
D,Submasters 33-39,90+,,,182.5,,182.5,Keeya Sutherland,,TX,Single-ply,F,1
D,Submasters 33-39,90+,,,140,,140,Christine Ruscher,,MN,Single-ply,F,4
B,Class 1,52,35,,,,35,Jeanne Morris,,WA,Single-ply,F,1
B,Class 1,60,70,,,,70,Danielle Llamas,,OR,Single-ply,F,2
B,Class 1,60,72.5,,,,72.5,Lynn Puana,,HI,Single-ply,F,1
B,Class 1,60,70,,,,70,Michelle Kahakalau,,HI,Single-ply,F,3
B,Class 1,60,67.5,,,,67.5,Judy Vierra,,HI,Single-ply,F,4
B,Class 1,60,67.5,,,,67.5,Dolores Garcia-Munro,,CA,Single-ply,F,5
B,Class 1,67.5,75,,,,75,Kayla Krueger,,WI,Single-ply,F,1
B,Class 1,67.5,75,,,,75,Dayna Ng,,HI,Single-ply,F,2
B,Class 1,67.5,40,,,,40,Cassidy Bauer,,MA,Single-ply,F,3
B,Class 1,75,67.5,,,,67.5,DeAnna Dutton,,WA,Multi-ply,F,1
B,Class 1,75,77.5,,,,77.5,Victoria Osuna,,OR,Single-ply,F,1
B,Class 1,82.5,67.5,,,,67.5,Millicent Jefferies,,IL,Single-ply,F,2
B,Class 1,82.5,70,,,,70,Deborah Maxwell,,CA,Single-ply,F,1
B,Class 1,82.5,60,,,,60,Pamela Michaels,,WA,Single-ply,F,3
B,Class 1,90,92.5,,,,92.5,Destinee Pakani,,HI,Single-ply,F,1
B,Class 1,90,62.5,,,,62.5,Felicia Thomas,,IL,Single-ply,F,2
B,Class 1,100,75,,,,75,Jescelia Durr,,IL,Single-ply,F,1
B,Class 1,90+,72.5,,,,72.5,Tiffany Capouch,,MN,Single-ply,F,2
B,Class 1,90+,87.5,,,,87.5,Kay Kadoun,,WA,Single-ply,F,1
B,Class 1,90+,60,,,,60,Lakisha Campbell,,TX,Single-ply,F,3
B,Juniors 20-25,44,65,67.5,,,65,Ekaterina Romanova,Russia,,Single-ply,F,1
B,Juniors 20-25,52,42.5,,,,42.5,Brooke Caraccioli,,CA,Single-ply,F,1
B,Juniors 20-25,67.5,102.5,,,,102.5,Cristal Cabral,,TX,Single-ply,F,1
B,Juniors 20-25,67.5,52.5,,,,52.5,Natalie Caughey,,UT,Single-ply,F,2
B,Juniors 20-25,75,57.5,,,,57.5,Rachel Clements,,AZ,Single-ply,F,2
B,Juniors 20-25,75,120,,,,120,Zena Kiyota,,HI,Single-ply,F,1
B,Juniors 20-25,82.5,97.5,,,,97.5,Jessica Muskat,,HI,Single-ply,F,1
B,Juniors 20-25,82.5,102.5,,,,102.5,Kayla Sua,,WA,Multi-ply,F,1
B,Juniors 20-25,90+,115,120.5,,,115,Rachelle Meidinger,,MT,Single-ply,F,1
B,Law-Fire 48-55,75,105,,,,105,Gion Prevard,,IL,Single-ply,F,1
B,Law-Fire 48-55,100,57.5,,,,57.5,Robin Martin,,IL,Single-ply,F,1
B,Law-Fire 64,82.5,70,73.5,,,70,Pam Carter,,AZ,Single-ply,F,1
B,Law-Fire Open,75,105,,,,105,Gion Prevard,,IL,Single-ply,F,1
B,Law-Fire Open,90,158,,,,158,Alisha Howard,,WA,Single-ply,F,1
B,Law-Fire Submasters,82.5,72.5,,,,72.5,Dana Barnes,,IL,Single-ply,F,1
B,Open,44,65,67.5,,,65,Ekaterina Romanova,Russia,,Single-ply,F,1
B,Open,48,87.5,,,,87.5,Linda Barnes,,CA,Single-ply,F,1
B,Open,52,50,,,,50,Valesca Cristina Rocha,Brazil,,Single-ply,F,1
B,Open,56,75,,,,75,Martha Godinez-Shim,,HI,Multi-ply,F,1
B,Open,56,92.5,,,,92.5,Kali Schierl,,WI,Single-ply,F,1
B,Open,56,65,,,,65,Rebecca Moore,,WA,Multi-ply,F,2
B,Open,60,77.5,,,,77.5,Ana Catia Portilho Couto,Brazil,,Single-ply,F,2
B,Open,60,102.5,,,,102.5,Rachel Strauss,,HI,Single-ply,F,1
B,Open,67.5,137.5,,,,137.5,Kandice Kinney,,HI,Single-ply,F,1
B,Open,67.5,102.5,,,,102.5,Peach Presley,,CA,Multi-ply,F,1
B,Open,67.5,115,,,,115,Krystal Miller,,NV,Single-ply,F,2
B,Open,67.5,75,,,,75,Kimberly Phanthavong,,WA,Single-ply,F,3
B,Open,67.5,52.5,,,,52.5,Natalie Caughey,,UT,Single-ply,F,4
B,Open,75,52.5,,,,52.5,Adriane Harris,,TX,Single-ply,F,4
B,Open,75,73,,,,73,Kyla Mc Carty,,CA,Single-ply,F,3
B,Open,75,157.5,160,,,157.5,Virpi Pukkila,Finland,,Single-ply,F,1
B,Open,75,150,158,,,150,Cindy Shockman,,OR,Single-ply,F,2
B,Open,82.5,,,,,,Karen Campbell,,ME,Single-ply,F,DQ
B,Open,82.5,120,,,,120,Elizabeth Couture,,MA,Single-ply,F,1
B,Open,82.5,102.5,,,,102.5,Kayla Sua,,WA,Multi-ply,F,1
B,Open,82.5,97.5,,,,97.5,Jessica Muskat,,HI,Single-ply,F,2
B,Open,90,132.5,,,,132.5,Mary Denning,,WA,Multi-ply,F,1
B,Open,90,102.5,,,,102.5,Amy Rudder,,TN,Multi-ply,F,2
B,Open,100,85,92.5,,,85,Susan Johnson #2,,HI,Multi-ply,F,1
B,Open,90+,65,,,,65,Ashley Boykin,,IL,Single-ply,F,2
B,Open,90+,98,,,,98,Gloria Caughey,,UT,Multi-ply,F,1
B,Open,90+,82.5,,,,82.5,Alyssa Greenwood,,CA,Single-ply,F,1
B,Special Olympian,90,70,75,,,70,Chloe Kaalund,,CA,Single-ply,F,1
B,Submasters 33-39,52,50,,,,50,Jamie Field,,CA,Single-ply,F,1
B,Submasters 33-39,60,102.5,,,,102.5,Rachel Strauss,,HI,Single-ply,F,1
B,Submasters 33-39,60,72.5,,,,72.5,Lynn Puana,,HI,Single-ply,F,2
B,Submasters 33-39,67.5,80,,,,80,Lynn Gilpin-Parks,,WI,Single-ply,F,2
B,Submasters 33-39,67.5,87.5,,,,87.5,Nida Namathep,,AZ,Single-ply,F,1
B,Submasters 33-39,67.5,52.5,,,,52.5,Michelle Bialek,,MN,Single-ply,F,3
B,Submasters 33-39,90,132.5,,,,132.5,Mary Denning,,WA,Multi-ply,F,1
B,Submasters 33-39,90,158,,,,158,Alisha Howard,,WA,Single-ply,F,1
B,Submasters 33-39,90+,57.5,,,,57.5,Michelle Garrett,,TX,Single-ply,F,2
B,Submasters 33-39,90+,67.5,,,,67.5,Janessa Sturtz,,MN,Single-ply,F,1
B,Submasters 33-39,90+,55,,,,55,Christine Ruscher,,MN,Single-ply,F,3
BD,Class 1,67.5,130,,195,,325,Dave Constantineau,,,Single-ply,M,1
BD,Class 1,90,212.5,,255,,467.5,Preston Quinn,,WI,Single-ply,M,1
BD,Class 1,100,147.5,,192.5,,340,Michael Collins,,CA,Multi-ply,M,1
BD,Class 1,110,97.5,,215,,312,William G Caughey,,UT,Single-ply,M,1
BD,Class 1,110,82.5,,165,,247.5,Harry Munro,,CA,Single-ply,M,2
BD,Class 1,117.5,227.5,,280,,507.5,David Palmer,,ME,Single-ply,M,1
BD,Law-Fire 40-47,110,170,,260,,430,Freddy Crosby,,IL,Single-ply,M,1
BD,Law-Fire 40-47,117.5,,,255,272.5,,Flip Silva,,,Multi-ply,M,DQ
BD,Law-Fire 40-47,125,305,,255,,560,Tommy Harrison,,IL,Single-ply,M,1
BD,Law-Fire 40-47,125,167.5,,227.5,,395,Bobby Gray,,CA,Single-ply,M,2
BD,Law-Fire 48-55,90,137.5,,255.5,,393,Dan Guches,,OR,Single-ply,M,1
BD,Law-Fire 56-63,90,147.5,,250,,397.5,Charles McFarland,,OR,Single-ply,M,1
BD,Law-Fire 56-63,110,272.5,,277.5,,550,Mike Frizzell,,IL,Single-ply,M,1
BD,Law-Fire 56-63,110,130,,255,,385,Manny Burruel,,CA,Multi-ply,M,1
BD,Law-Fire 56-63,125,222.5,,187.5,,410,Jay Simmons,,TX,Single-ply,M,1
BD,Law-Fire 64,67.5,155,,170,,325,Gary Miller #2,,NV,Multi-ply,M,1
BD,Law-Fire Open,75,125,,180,,305,Eli Huizar Zuniga,,WA,Multi-ply,M,1
BD,Law-Fire Open,90,260.5,272.5,240,,500.5,Ryan Marble,,UT,Single-ply,M,1
BD,Law-Fire Open,90,137.5,,255.5,,393,Dan Guches,,OR,Single-ply,M,2
BD,Law-Fire Open,140,262.5,278,230,245,492.5,William Lee,,TX,Multi-ply,M,1
BD,Law-Fire Submasters,100,187.5,,230,,417.5,Nick Berriman,,OR,Single-ply,M,1
BD,Law-Fire Submasters,140,262.5,278,230,245,492.5,William Lee,,TX,Multi-ply,M,1
BD,Open,75,190,,230,,420,Alfredo Evangelista,,,Single-ply,M,1
BD,Open,75,117.5,,215,,332.5,Tanner Kennedy,,NY,Single-ply,M,2
BD,Open,82.5,190,,300,,490,Matt Griffin,,TX,Single-ply,M,1
BD,Open,82.5,152.5,,297.5,,450,Leamon Woodley,,WA,Single-ply,M,2
BD,Open,90,150,,237.5,,387.5,Kevin Zybert,,NY,Single-ply,M,1
BD,Open,125,227.5,,227.5,,455,Jim Presley,,CA,Multi-ply,M,1
BD,Open,140+,237.5,,252.5,,490,Joe Mickelson,,WA,Single-ply,M,1
BD,Class 1,52,35,,92.5,,127.5,Jeanne Morris,,CA,Single-ply,F,1
BD,Class 1,60,70,,142.5,,212.5,Danielle Llamas,,OR,Single-ply,F,1
BD,Class 1,60,67.5,,141,,208.5,Dolores Garcia-Munro,,CA,Single-ply,F,2
BD,Class 1,75,77.5,,132.5,,210,Victoria Osuna,,OR,Single-ply,F,1
BD,Class 1,82.5,67.5,,152.5,,220,Millicent Jefferies,,IL,Single-ply,F,1
BD,Class 1,82.5,60,,117.5,,177.5,Pamela Michaels,,WA,Single-ply,F,2
BD,Class 1,90,62.5,,160,,222.5,Felicia Thomas,,IL,Single-ply,F,1
BD,Class 1,90+,87.5,,155,,242.5,Kay Kadoun,,WA,Single-ply,F,1
BD,Juniors 20-25,52,42.5,,92.5,,135,Brooke Caraccioli,,CA,Single-ply,F,1
BD,Juniors 20-25,67.5,52.5,,142.5,,195,Natalie Caughey,,UT,Single-ply,F,1
BD,Juniors 20-25,75,120,,167.5,,287.5,Zena Kiyota,,HI,Single-ply,F,1
BD,Juniors 20-25,90+,115,120.5,165,,280,Rachelle Meidinger,,MT,Single-ply,F,1
BD,Law-Fire 48-55,75,105,,130,,235,Gion Prevard,,IL,Single-ply,F,1
BD,Law-Fire 48-55,100,57.5,,142.5,,200,Robin Martin,,IL,Single-ply,F,1
BD,Law-Fire Submasters,82.5,72.5,,100,,172.5,Dana Barnes,,IL,Single-ply,F,1
BD,Open,60,77.5,,185,,262.5,Ana Catia Portilho Couto,,,Single-ply,F,1
BD,Open,60,102.5,,142.5,,245,Rachel Strauss,,HI,Single-ply,F,2
BD,Open,67.5,115,,155,,270,Krystal Miller,,NV,Single-ply,F,1
BD,Open,67.5,102.5,,137.5,140,240,Peach Presley,,CA,Multi-ply,F,1
BD,Open,75,73,,110,,183,Kyla Mc Carty,,CA,Single-ply,F,1
BD,Submasters 33-39,60,102.5,,142.5,,245,Rachel Strauss,,HI,Single-ply,F,1
BD,Submasters 33-39,67.5,80,,105,,185,Lynn Gilpin-Parks,,WI,Single-ply,F,1
BD,Submasters 33-39,90+,57.5,,160,,217.5,Michelle Garrett,,TX,Single-ply,F,1
