Division,WeightClassKg,Place,Name,Team,BodyweightKg,Best3SquatKg,Best3BenchKg,Best3DeadliftKg,TotalKg,Equipment,Event,Sex
Girls,44.23,1,Coolen Baker,Azle,44,52.16,22.68,74.84,149.69,Single-ply,SBD,F
Girls,51.94,1,Alondra Ortiz,Saginaw,50.71,102.06,47.63,122.47,272.16,Single-ply,SBD,F
Girls,51.94,2,Sofia Padilla,Saginaw,51.39,90.72,40.82,86.18,217.72,Single-ply,SBD,F
Girls,51.94,3,Alex Acuna,Fort Worth Boswell,51.89,68.04,38.56,68.04,174.63,Single-ply,SBD,F
Girls,51.94,DQ,Taya Pope,Azle,50.3,,,,,Single-ply,SBD,F
Girls,56.02,1,Nayelin Feliz,Saginaw,55.7,79.38,34.02,83.91,197.31,Single-ply,SBD,F
Girls,56.02,2,Chloe Heick,Saginaw,54.7,61.23,24.95,70.31,156.49,Single-ply,SBD,F
Girls,56.02,DQ,Dana Risher,Fort Worth Chisholm Trail,55.43,,,,,Single-ply,SBD,F
Girls,60.1,1,Sabrina Garcia,Azle,59.51,99.79,63.5,120.2,283.5,Single-ply,SBD,F
Girls,60.1,2,Dylan Knoll,Azle,59.28,95.25,54.43,108.86,258.55,Single-ply,SBD,F
Girls,60.1,3,Pella Lefever,Azle,59.96,90.72,49.9,97.52,238.14,Single-ply,SBD,F
Girls,60.1,4,Jennifer Gfrerer,Saginaw,60.06,83.91,43.09,108.86,235.87,Single-ply,SBD,F
Girls,60.1,5,Jasmine Tung,Saginaw,59.83,72.57,45.36,108.86,226.8,Single-ply,SBD,F
Girls,60.1,6,Telvee Marive,Fort Worth Boswell,58.01,77.11,45.36,102.06,224.53,Single-ply,SBD,F
Girls,60.1,7,Skylan Mills,Justin Northwest,58.79,81.65,40.82,99.79,222.26,Single-ply,SBD,F
Girls,60.1,8,Madison McGinnis,Justin Northwest,59.42,81.65,43.09,83.91,208.65,Single-ply,SBD,F
Girls,60.1,9,Devin Beck,Fort Worth Chisholm Trail,57.2,74.84,29.48,81.65,185.97,Single-ply,SBD,F
Girls,60.1,10,Sandya Magar,Saginaw,59.78,79.38,27.22,74.84,181.44,Single-ply,SBD,F
Girls,60.1,11,Piper Bulat,Azle,58.88,56.7,29.48,61.23,147.42,Single-ply,SBD,F
Girls,67.36,1,Madison Tamjidi,Azle,66.9,115.67,72.57,131.54,319.78,Single-ply,SBD,F
Girls,67.36,2,Shelby Irons,Northwest Eaton,61.37,102.06,56.7,106.59,265.35,Single-ply,SBD,F
Girls,67.36,3,Jennifer Salerno,Justin Northwest,65.86,99.79,47.63,99.79,247.21,Single-ply,SBD,F
Girls,67.36,4,Emily Meador,Justin Northwest,61.96,90.72,45.36,99.79,235.87,Single-ply,SBD,F
Girls,67.36,5,Kaitlyn Marsh,Justin Northwest,66,92.99,38.56,83.91,215.46,Single-ply,SBD,F
Girls,67.36,6,Rachel Ford-Wick,Azle,66.68,79.38,43.09,83.91,206.38,Single-ply,SBD,F
Girls,67.36,7,Makenna Vallejo,Justin Northwest,62.01,83.91,38.56,81.65,204.12,Single-ply,SBD,F
Girls,67.36,8,Liliana Vasquez,Fort Worth Chisholm Trail,67.36,79.38,34.02,79.38,192.78,Single-ply,SBD,F
Girls,67.36,9,Briana Autry,Fort Worth Chisholm Trail,60.46,65.77,27.22,72.57,165.56,Single-ply,SBD,F
Girls,67.36,10,Jewell Oconnor,Fort Worth Chisholm Trail,63.41,56.7,34.02,74.84,165.56,Single-ply,SBD,F
Girls,67.36,11,Cristina Ropa,Fort Worth Chisholm Trail,62.73,61.23,29.48,70.31,161.03,Single-ply,SBD,F
Girls,67.36,12,Rosemary Avila,Fort Worth Chisholm Trail,65.09,56.7,27.22,70.31,154.22,Single-ply,SBD,F
Girls,75.07,1,Cadence Lincoln,Justin Northwest,74.21,124.74,61.23,127.01,312.98,Single-ply,SBD,F
Girls,75.07,2,Annabella Gamble,Azle,74.21,104.33,54.43,115.67,274.42,Single-ply,SBD,F
Girls,75.07,3,Kenlee Blackmon,Northwest Eaton,69.9,102.06,56.7,106.59,265.35,Single-ply,SBD,F
Girls,75.07,4,Sophia Thompson,Justin Northwest,73.07,95.25,54.43,104.33,254.01,Single-ply,SBD,F
Girls,75.07,5,Janaie Bedford,Justin Northwest,70.03,86.18,40.82,95.25,222.26,Single-ply,SBD,F
Girls,75.07,6,Ashlyn Woodling,Justin Northwest,71.12,83.91,36.29,88.45,208.65,Single-ply,SBD,F
Girls,75.07,7,Amanda Tormanen,Justin Northwest,67.54,83.91,40.82,79.38,204.12,Single-ply,SBD,F
Girls,75.07,8,Adrianna Corbin,Saginaw,71.85,72.57,36.29,92.99,201.85,Single-ply,SBD,F
Girls,75.07,9,Zulay Avalos,Saginaw,72.94,72.57,29.48,92.99,195.04,Single-ply,SBD,F
Girls,75.07,10,Joanna Avila,Fort Worth Chisholm Trail,71.03,74.84,29.48,77.11,181.44,Single-ply,SBD,F
Girls,75.07,11,Kate Ishema,Saginaw,68.86,47.63,27.22,72.57,147.42,Single-ply,SBD,F
Girls,75.07,12,Michelle Rodriguez,Fort Worth Chisholm Trail,70.67,47.63,20.41,61.23,129.27,Single-ply,SBD,F
Girls,75.07,DQ,Emma Walker,Azle,72.62,52.16,,77.11,,Single-ply,SBD,F
Girls,75.07,DQ,Sydney Smith,Azle,70.31,,,,,Single-ply,SBD,F
Girls,82.33,1,Isabelle Morales,Saginaw,81.92,113.4,52.16,108.86,274.42,Single-ply,SBD,F
Girls,82.33,2,Nadia Brockway,Northwest Eaton,76.2,108.86,45.36,97.52,251.74,Single-ply,SBD,F
Girls,82.33,3,Mia Skelton,Northwest Eaton,75.8,97.52,47.63,95.25,240.4,Single-ply,SBD,F
Girls,82.33,4,Michelle Parkison,Azle,80.33,92.99,54.43,83.91,231.33,Single-ply,SBD,F
Girls,82.33,5,Tiffani Adams,Fort Worth Chisholm Trail,76.61,70.31,54.43,97.52,222.26,Single-ply,SBD,F
Girls,90.04,1,Paige Mooney,Northwest Eaton,85.05,120.2,58.97,127.01,306.17,Single-ply,SBD,F
Girls,90.04,2,Maryann Matt,Azle,85.96,99.79,58.97,108.86,267.62,Single-ply,SBD,F
Girls,117.71,1,Kaelyn McCullough,Justin Northwest,114.89,124.74,70.31,120.2,315.25,Single-ply,SBD,F
Girls,117.71,2,Carrie Fulton,Justin Northwest,104.24,95.25,63.5,97.52,256.28,Single-ply,SBD,F
